[header]
width=100
height=100
tilewidth=64
tileheight=64

[tilesets]
tileset=images/tilemap.png,64,64,0,0
tileset=images/functional_tilemap.png,64,64,0,0

[layer]
type=mapdata
data=
1,1,1,1,1,1,1,1,1,1,1,1,1,1,1,1,1,1,1,1,1,1,1,1,1,1,1,1,1,1,1,1,1,1,1,1,1,1,1,1,1,1,1,1,1,1,1,1,1,1,1,1,1,1,1,1,1,1,1,1,1,1,1,1,1,1,1,1,1,1,1,1,1,1,1,1,1,1,1,1,1,1,1,1,1,1,1,1,1,1,1,1,1,1,1,1,1,1,1,1,
1,1,1,1,1,1,1,1,1,1,1,1,1,1,1,1,1,1,1,1,1,1,1,1,1,1,1,1,1,1,1,1,1,1,1,1,1,1,1,1,1,1,1,1,1,1,1,1,1,1,1,1,1,1,1,1,1,1,1,1,1,1,1,1,1,1,1,1,1,1,1,1,1,1,1,1,1,1,1,1,1,1,1,1,1,1,1,1,1,1,1,1,1,1,1,1,1,1,1,1,
1,1,1,1,1,1,1,1,1,1,1,1,1,1,1,1,1,1,1,1,1,1,1,1,1,1,1,1,1,1,1,1,1,1,1,1,1,1,1,1,1,1,1,1,1,1,1,1,1,1,1,1,1,1,1,1,1,1,1,1,1,1,1,1,1,1,1,1,1,1,1,1,1,1,1,1,1,1,1,1,1,1,1,1,1,1,1,1,1,1,1,1,1,1,1,1,1,1,1,1,
1,1,55,51,51,51,51,51,51,51,51,51,67,51,51,51,51,51,51,51,51,51,51,51,51,51,51,51,51,51,51,51,67,51,51,51,51,51,51,51,51,67,51,51,51,51,51,51,51,51,51,51,51,51,51,51,51,51,51,51,51,51,51,67,51,51,51,51,51,51,67,51,51,51,51,51,51,51,51,51,51,51,51,51,67,51,51,51,51,67,51,51,51,51,51,51,56,1,1,1,
1,1,52,1,1,1,1,1,1,1,1,1,52,1,39,39,1,1,1,1,1,36,49,37,37,1,49,1,1,1,1,1,71,1,1,1,1,1,1,1,1,71,1,1,1,1,1,1,1,1,1,1,1,1,1,37,50,39,36,39,39,39,37,52,50,1,36,36,1,50,52,1,1,1,1,1,1,1,1,1,1,1,1,1,52,1,37,1,1,52,1,1,1,36,49,1,52,1,1,1,
1,1,52,1,1,1,1,1,1,1,1,1,52,38,1,37,1,1,1,1,1,1,36,38,38,36,1,1,1,1,1,1,1,1,1,1,1,1,1,1,1,1,1,1,1,1,1,1,1,1,1,1,1,1,1,1,1,1,1,1,36,36,36,52,38,37,38,38,36,38,52,1,1,1,1,1,1,1,1,1,1,1,1,1,52,38,38,1,1,52,1,1,1,50,38,36,52,1,1,1,
1,1,52,1,1,1,1,1,1,1,1,1,52,50,38,1,1,1,1,1,1,1,1,1,1,1,1,1,1,1,1,1,1,1,1,1,1,1,1,1,1,1,1,1,1,1,1,1,1,1,1,1,1,1,1,1,1,1,1,1,1,39,49,52,39,37,36,1,36,36,52,1,1,1,1,1,1,1,1,1,1,1,1,1,52,39,1,1,1,71,1,1,1,1,50,50,52,1,1,1,
1,1,52,37,37,37,1,1,1,1,1,1,52,1,50,1,1,1,1,1,1,1,1,1,1,1,1,1,1,1,1,1,72,1,1,1,1,1,1,1,1,72,1,1,1,1,1,1,1,1,1,1,1,1,1,1,1,1,1,1,1,49,49,69,51,51,51,51,51,51,70,1,1,1,1,1,1,1,1,1,1,1,1,1,52,36,1,1,1,1,1,1,1,1,38,49,52,1,1,1,
1,1,69,51,51,51,67,81,1,1,82,51,68,51,51,81,1,1,82,51,67,51,51,51,51,51,81,1,1,82,51,67,68,51,51,51,51,51,67,51,51,68,51,51,51,67,51,51,51,51,51,51,51,56,36,1,1,1,1,1,1,1,49,52,36,36,36,1,1,1,52,1,1,1,1,55,51,51,51,51,56,1,1,1,52,37,1,1,1,1,1,1,1,1,37,50,52,1,1,1,
1,1,52,49,36,39,52,1,1,1,1,1,1,1,1,1,1,1,1,1,52,1,1,39,39,1,1,1,1,1,1,52,1,36,36,36,38,39,52,1,38,50,1,37,50,52,49,1,1,36,36,1,1,52,36,1,1,1,1,1,1,1,1,52,36,1,1,1,1,1,52,1,1,1,1,52,1,36,38,1,52,1,1,1,52,39,38,1,1,72,1,1,1,1,37,49,52,1,1,1,
1,1,52,50,39,37,52,1,1,1,1,1,1,1,1,1,1,1,1,1,52,1,1,38,1,1,1,1,1,1,1,52,38,36,36,50,39,50,52,38,49,36,38,38,36,52,1,1,36,38,37,1,1,52,36,50,1,36,1,1,1,1,37,52,1,1,1,1,1,1,52,1,1,1,1,52,50,36,37,1,52,1,1,1,52,36,38,1,1,52,1,1,1,1,37,50,52,1,1,1,
1,1,52,50,38,37,52,1,1,1,1,1,1,1,1,1,1,1,1,1,52,1,37,50,1,1,37,1,1,1,1,71,1,1,1,1,1,1,65,51,51,51,51,51,51,70,1,1,1,37,37,1,1,52,36,50,36,36,1,1,1,1,1,52,1,1,1,1,1,1,52,1,1,1,1,52,1,1,39,1,52,1,1,1,65,51,51,51,51,66,1,1,1,1,49,1,52,1,1,1,
1,1,52,37,1,1,69,51,51,51,81,1,1,82,51,67,51,51,51,51,70,1,1,36,1,1,37,1,1,1,1,1,1,1,1,1,1,1,1,1,1,50,1,37,39,52,39,1,1,50,1,1,1,69,51,51,51,51,81,1,1,82,51,83,51,81,1,1,82,51,66,1,1,1,36,52,1,49,50,36,52,1,1,1,1,1,1,1,1,1,1,1,1,1,39,36,52,1,1,1,
1,1,52,1,38,38,52,1,1,1,1,1,1,1,1,52,36,1,39,36,52,1,1,49,1,1,1,1,1,1,1,1,1,1,1,1,1,1,1,1,1,1,36,49,49,52,39,1,1,37,39,1,1,52,38,39,36,1,1,1,1,1,1,52,1,1,1,1,1,1,1,1,1,1,36,52,1,36,36,49,52,1,1,1,1,1,1,1,1,1,1,1,1,1,38,36,52,1,1,1,
1,1,52,36,39,50,52,1,1,1,1,1,1,1,1,52,37,38,36,36,52,36,1,1,1,39,1,1,1,1,1,72,1,1,1,1,1,1,1,1,1,1,1,36,36,52,37,1,1,1,1,1,1,52,36,36,38,38,1,1,1,1,1,52,1,1,1,1,1,1,1,1,1,1,36,52,1,1,1,39,52,1,1,1,1,1,1,1,1,1,1,1,1,36,50,1,52,1,1,1,
1,1,52,39,49,39,52,1,1,1,1,1,1,1,1,52,49,36,36,36,52,36,1,1,1,50,50,1,1,1,1,52,1,1,1,1,1,1,1,1,1,1,1,1,1,52,50,1,1,1,1,1,36,52,36,1,36,1,1,1,1,1,36,52,38,1,1,1,1,1,1,1,1,1,1,52,36,1,1,37,52,1,1,1,1,1,1,1,1,1,1,1,1,1,36,38,52,1,1,1,
1,1,69,51,51,51,83,51,51,51,51,51,51,51,51,83,51,51,51,51,83,51,51,51,51,51,67,51,51,51,51,83,51,81,1,1,82,51,56,1,1,1,1,1,1,65,51,51,81,1,1,82,51,66,38,50,36,1,1,1,1,1,1,52,38,1,1,1,1,1,1,1,1,1,1,52,36,1,1,37,52,1,1,1,1,1,36,36,36,36,1,1,1,1,1,1,52,1,1,1,
1,1,52,49,38,49,52,36,36,1,1,1,36,36,1,52,1,37,36,1,52,37,1,38,37,49,52,1,36,37,39,52,1,1,1,1,1,1,52,49,38,1,1,1,1,37,39,1,1,1,1,1,1,1,39,38,1,1,1,1,1,37,49,52,49,1,1,1,1,55,51,51,51,51,51,83,81,1,1,82,70,1,1,1,1,55,51,51,51,51,51,51,51,51,51,51,70,1,1,1,
1,1,52,49,37,37,52,36,36,1,1,1,1,36,36,52,38,38,1,36,52,36,36,49,50,1,52,49,38,50,38,52,1,1,1,1,1,1,52,38,36,1,1,1,1,1,38,1,1,1,1,1,1,36,38,1,1,1,1,1,1,38,36,52,49,1,1,1,1,52,1,36,36,50,39,52,1,1,1,1,52,1,1,1,1,52,37,38,38,1,37,49,50,1,50,37,52,1,1,1,
1,1,52,50,37,50,52,1,1,36,1,1,1,1,1,52,37,38,38,36,52,36,36,36,39,36,52,49,38,38,36,52,36,1,1,1,1,1,52,1,36,49,1,1,1,1,1,1,1,1,1,1,1,1,1,1,1,1,1,1,36,38,1,52,50,1,1,1,1,52,37,1,36,38,1,52,1,1,1,1,52,1,1,1,1,52,39,38,38,49,38,39,39,36,50,49,52,1,1,1,
1,1,52,50,49,37,52,1,1,1,1,1,1,1,1,52,36,39,49,38,52,1,36,37,1,36,52,49,1,1,36,52,36,39,39,39,37,50,52,38,36,49,1,1,1,1,1,1,1,1,1,1,1,1,1,1,1,1,1,37,49,36,1,52,49,1,1,1,1,52,49,36,49,50,49,52,36,1,1,1,52,1,1,1,1,52,38,50,37,38,1,49,1,39,36,49,52,1,1,1,
1,1,69,51,51,51,68,51,51,81,1,1,82,51,51,68,51,51,51,51,68,51,51,51,51,51,83,51,51,51,51,83,51,51,51,51,51,51,68,51,51,51,56,1,1,1,1,1,55,51,51,51,51,51,81,1,1,82,51,51,51,51,51,70,49,1,1,1,1,69,51,51,51,51,51,70,39,1,1,1,52,1,1,1,1,52,37,38,38,39,38,38,38,49,37,38,52,1,1,1,
1,1,52,36,1,1,1,1,1,1,1,1,1,1,1,1,1,1,1,1,1,1,1,1,36,36,52,36,36,1,1,52,38,1,36,39,36,50,49,49,36,1,52,1,1,1,1,1,52,1,1,36,1,1,1,1,1,1,1,49,1,39,38,52,36,1,1,1,1,52,37,1,38,37,37,52,39,1,1,1,52,36,1,1,1,52,39,39,49,36,1,1,38,49,50,36,52,1,1,1,
1,1,52,39,1,1,1,1,1,1,1,1,1,1,1,1,1,1,1,1,1,1,1,1,1,36,52,1,36,36,36,52,36,37,38,39,36,50,36,49,36,50,52,1,1,1,1,39,52,1,50,50,1,1,1,1,1,1,1,36,39,49,50,52,1,1,1,1,1,52,37,36,38,37,39,52,1,1,1,1,52,49,1,1,1,52,49,1,50,50,39,39,50,1,38,50,52,1,1,1,
1,1,52,39,1,1,1,1,1,1,1,1,1,1,1,1,1,1,1,1,1,1,1,1,1,1,52,1,1,1,36,52,38,36,49,36,36,1,39,1,38,49,52,1,1,1,1,36,52,36,38,36,1,1,1,55,56,1,1,1,36,1,36,52,1,1,1,1,1,52,84,1,84,84,37,52,1,1,1,1,52,38,1,1,1,52,39,39,37,37,1,49,1,36,49,37,52,1,1,1,
1,1,52,38,1,1,1,1,1,1,1,1,1,1,1,1,1,1,1,1,1,1,1,1,1,1,52,1,1,1,1,52,36,1,37,1,49,36,38,36,36,36,52,1,1,1,1,39,52,36,1,1,1,1,55,83,83,56,1,1,1,1,1,52,1,1,1,1,1,69,51,51,51,51,51,66,1,1,1,1,52,38,1,1,1,52,49,49,38,37,37,38,50,38,50,1,52,1,1,1,
1,1,52,38,1,1,1,1,1,55,51,51,51,51,51,51,51,51,51,51,56,1,1,1,1,1,71,1,1,1,1,52,36,38,38,49,49,38,39,37,39,37,52,1,1,1,1,36,52,1,1,1,1,1,65,83,83,66,1,1,1,36,36,52,1,1,1,1,1,52,1,1,50,1,1,1,1,1,1,1,52,1,1,1,1,52,37,49,1,1,38,36,38,49,50,36,52,1,1,1,
1,1,52,38,49,36,1,1,1,52,1,39,1,1,1,1,1,1,1,36,52,1,1,1,1,1,1,1,1,1,1,52,38,38,36,1,36,39,36,49,1,1,52,1,1,1,1,36,52,39,49,1,1,1,1,65,66,1,1,1,50,39,1,52,1,1,1,1,1,52,36,1,1,1,1,1,1,1,1,1,52,1,1,1,1,52,36,1,49,1,1,1,39,1,39,39,52,1,1,1,
1,1,52,49,36,36,1,1,1,52,49,36,1,1,1,1,1,1,1,1,52,1,1,1,1,1,1,1,1,1,1,52,36,37,50,36,50,36,36,49,36,1,52,38,1,1,1,36,52,1,37,37,1,1,1,1,1,1,1,39,50,50,1,52,1,1,1,1,1,71,1,1,1,1,1,1,1,1,49,1,52,1,1,1,1,52,39,38,38,36,38,38,49,38,50,50,52,1,1,1,
1,1,52,1,37,36,1,1,1,52,49,1,1,1,39,50,1,1,1,36,52,36,1,1,1,1,72,1,1,1,1,52,36,1,38,49,38,38,38,39,36,50,52,37,1,1,1,1,52,1,38,38,1,1,1,1,1,1,1,1,1,1,1,52,1,1,1,1,1,1,1,1,1,1,1,1,1,36,1,1,52,1,1,1,1,52,38,50,37,1,36,1,50,1,38,37,52,1,1,1,
1,1,52,1,38,1,1,1,1,52,1,1,1,1,49,36,36,1,1,1,52,36,1,1,1,1,52,1,1,1,1,52,36,36,36,39,36,37,1,38,36,38,52,39,1,1,1,1,65,51,51,51,51,51,81,1,1,82,51,51,51,51,51,66,1,1,1,1,1,1,1,1,1,1,1,36,49,37,36,1,52,1,1,1,1,52,39,1,37,38,38,50,37,37,39,36,52,1,1,1,
1,1,52,1,49,1,1,1,1,52,1,1,1,1,38,36,36,1,1,1,52,36,1,1,1,1,52,1,1,1,36,52,38,1,36,39,49,39,36,37,38,36,52,39,1,1,1,1,1,1,1,1,1,1,1,1,1,1,1,1,1,1,1,1,1,1,1,1,1,72,1,1,1,36,38,39,36,38,38,1,52,1,1,1,1,52,38,36,37,37,49,1,50,37,38,1,52,1,1,1,
1,1,52,1,39,1,1,1,1,52,1,1,1,36,1,50,50,38,36,1,52,1,1,1,1,1,52,36,36,36,36,52,39,49,38,1,36,37,38,38,36,36,52,36,36,1,1,1,1,1,1,1,1,1,1,1,1,1,1,1,1,1,1,1,1,1,1,1,1,52,1,38,49,38,38,36,1,1,36,1,52,1,1,1,1,52,1,36,49,36,38,36,36,49,37,38,52,1,1,1,
1,1,52,1,1,1,1,1,1,52,1,1,36,49,1,37,39,36,37,1,52,1,1,1,1,1,52,36,1,1,1,52,1,1,49,37,50,36,39,36,50,39,52,36,39,36,1,1,1,1,1,1,1,1,1,1,1,1,1,1,1,1,1,1,1,1,1,1,1,52,1,39,1,1,1,1,1,1,1,1,52,1,1,1,1,52,39,1,39,1,50,1,1,36,49,36,52,1,1,1,
1,1,52,1,1,1,1,1,1,52,1,1,1,36,38,38,1,36,36,1,69,81,1,1,1,82,68,51,51,51,51,68,51,67,51,51,51,51,51,51,51,51,68,51,51,51,51,51,51,51,51,51,51,51,51,51,51,51,51,51,51,51,51,51,51,51,51,51,51,68,51,51,51,51,51,51,51,51,51,51,66,1,1,1,1,52,38,37,37,37,39,37,39,36,1,38,52,1,1,1,
1,1,52,49,50,1,1,1,1,52,36,1,1,38,36,38,36,36,1,1,52,1,1,1,1,1,1,1,50,36,36,36,49,52,36,50,36,39,49,38,36,1,1,1,1,1,1,1,1,1,1,38,39,36,36,1,1,1,1,1,1,1,1,1,37,37,38,1,1,1,1,1,1,1,1,1,1,1,1,1,1,1,1,1,1,52,50,49,50,36,1,39,37,49,39,37,52,1,1,1,
1,1,52,36,1,36,1,1,1,52,36,1,1,1,38,36,38,1,1,1,52,1,1,1,1,1,1,1,36,50,36,37,39,52,38,49,38,38,39,36,1,1,1,1,1,1,1,1,1,1,1,1,1,1,1,1,1,1,1,1,1,1,1,1,1,1,1,1,1,1,1,1,1,1,1,1,1,1,1,1,1,1,1,1,1,52,37,49,36,36,38,1,36,49,39,1,52,1,1,1,
1,1,52,39,50,39,1,1,1,52,39,1,1,1,1,38,38,1,1,1,52,1,49,1,1,1,1,37,1,50,49,1,37,52,39,1,1,1,1,1,1,1,1,1,1,1,1,1,1,1,1,1,1,1,1,1,1,1,1,1,1,1,1,1,1,1,1,1,1,1,1,1,1,1,1,1,1,1,1,1,1,1,1,1,1,52,49,36,1,37,38,39,50,38,50,49,52,1,1,1,
1,1,52,37,37,39,1,1,1,65,81,1,1,82,67,51,51,51,51,51,70,36,36,1,1,1,1,36,36,36,37,38,36,52,1,1,1,1,1,1,1,1,1,1,38,50,50,1,1,1,1,1,1,1,1,1,37,37,38,38,1,1,1,1,1,1,1,1,49,49,49,38,36,36,1,1,1,1,1,1,1,1,1,1,1,52,50,1,38,36,37,38,36,50,49,37,52,1,1,1,
1,1,52,1,50,1,1,1,1,1,1,1,1,1,52,1,1,36,36,36,52,50,37,1,1,1,1,36,36,1,1,1,36,52,1,1,1,1,1,1,1,55,51,51,51,51,51,51,51,51,51,51,51,51,51,51,51,51,51,51,51,51,51,51,51,51,51,51,51,51,51,51,51,51,51,51,51,51,51,51,56,1,1,1,1,52,49,38,36,39,49,36,1,36,36,39,52,1,1,1,
1,1,52,39,39,39,1,1,1,1,1,1,1,1,52,1,36,36,1,36,52,1,39,1,1,1,1,36,36,49,36,49,36,52,1,1,1,1,1,49,49,52,36,1,1,1,1,1,1,36,36,1,1,1,1,1,36,36,1,1,1,1,1,1,36,36,1,1,1,1,1,1,1,1,1,1,36,36,36,36,52,1,1,1,1,52,38,37,39,37,39,50,39,49,1,36,52,1,1,1,
1,1,52,38,84,39,1,1,1,1,1,1,1,1,52,1,36,38,38,1,52,36,38,1,1,1,1,1,1,36,49,49,36,71,1,1,1,1,38,49,36,52,36,1,1,1,1,1,1,1,1,1,1,1,1,1,1,1,1,1,1,1,1,1,1,1,1,1,1,1,1,1,1,1,1,1,1,1,1,1,71,1,1,1,1,52,39,36,36,38,36,38,36,1,50,50,52,1,1,1,
1,1,52,38,36,39,1,1,1,1,1,1,1,1,52,36,36,50,38,36,52,50,36,1,1,1,1,1,1,1,1,1,1,1,1,1,1,38,49,36,36,52,1,1,1,1,1,1,1,1,1,1,1,1,1,1,1,1,1,1,1,1,1,1,1,1,1,1,1,1,1,1,1,1,1,1,1,1,1,1,1,1,1,1,1,65,51,51,51,51,51,51,51,51,51,51,70,1,1,1,
1,1,52,36,36,38,1,1,1,1,1,1,1,1,52,38,39,49,38,36,52,50,38,39,1,1,1,1,1,1,1,1,1,1,1,1,1,39,1,36,36,52,1,1,1,1,1,1,1,1,1,1,1,1,1,1,1,1,1,1,1,1,1,1,1,1,1,1,1,1,1,1,1,1,1,1,1,1,1,1,1,1,1,1,1,1,1,1,1,1,1,36,36,36,36,1,52,1,1,1,
1,1,52,1,1,1,1,1,1,1,1,1,1,1,52,36,36,36,36,1,52,39,36,37,38,1,1,1,1,1,1,1,1,1,1,1,1,1,37,38,36,52,1,1,1,1,55,56,1,1,1,1,1,55,56,1,1,1,1,1,55,56,1,1,1,1,1,55,56,1,1,1,1,1,55,56,1,1,1,1,72,1,1,1,1,1,1,1,1,1,1,1,1,36,36,36,52,1,1,1,
1,1,52,38,36,37,1,1,1,1,1,1,1,1,52,38,49,49,36,37,52,38,36,49,38,36,39,1,1,1,1,1,1,72,1,1,1,49,49,39,39,69,51,51,51,67,83,83,56,1,1,1,55,83,83,56,1,1,1,55,83,83,56,1,1,1,55,83,83,56,1,1,1,55,83,83,67,51,51,51,70,1,1,1,1,1,1,1,1,1,1,1,1,1,1,36,52,1,1,1,
1,1,52,1,50,1,1,1,1,1,1,1,1,1,52,1,36,50,37,1,52,1,37,37,39,38,36,36,1,1,1,1,36,52,1,1,1,49,36,38,38,69,51,51,51,68,83,83,66,1,1,1,65,83,83,66,1,1,1,65,83,83,66,1,1,1,65,83,83,66,1,1,1,65,83,83,68,51,51,51,70,1,1,1,1,1,1,1,1,1,1,1,1,1,1,36,52,1,1,1,
1,1,52,36,1,49,1,1,1,1,1,1,1,1,69,51,51,51,51,51,83,51,51,51,51,51,51,51,51,51,51,51,51,70,1,1,1,1,36,36,36,52,1,1,1,1,65,66,1,1,1,1,1,65,66,1,1,1,1,1,65,66,1,1,1,1,1,65,66,1,1,1,1,1,65,66,1,1,1,1,71,1,1,1,1,55,51,51,51,81,1,1,82,51,51,51,70,1,1,1,
1,1,52,1,38,37,36,1,36,36,1,1,1,1,52,36,38,36,38,36,52,36,39,36,39,36,1,50,36,38,49,37,36,52,1,1,1,1,36,36,36,52,1,1,1,1,1,1,1,1,1,1,1,1,1,1,1,1,1,1,1,1,1,1,1,1,1,1,1,1,1,1,1,1,1,1,1,1,1,1,1,1,1,1,1,52,1,1,1,1,1,1,1,1,1,1,52,1,1,1,
1,1,52,1,38,1,49,36,39,36,1,1,1,1,52,38,36,36,1,36,52,36,39,36,36,1,36,38,1,1,1,37,36,52,1,1,1,1,36,38,36,52,1,1,1,1,1,1,1,1,1,1,1,1,1,1,1,1,1,1,1,1,1,1,1,1,1,1,1,1,1,1,1,1,1,1,1,1,1,1,1,1,1,1,1,52,1,1,1,1,1,1,1,1,1,1,52,1,1,1,
1,1,52,1,36,1,36,49,1,1,1,1,1,1,52,1,36,38,49,49,52,50,39,36,37,38,36,49,1,1,36,36,50,52,1,1,1,1,1,36,36,52,36,36,1,1,1,1,1,1,1,36,1,1,1,1,1,1,1,1,1,1,1,1,1,1,1,1,1,1,1,1,1,1,1,1,1,1,1,1,72,1,1,1,1,52,36,1,1,1,1,1,1,1,1,36,52,1,1,1,
1,1,52,36,38,37,36,36,49,1,1,1,1,1,52,36,36,50,37,38,52,37,36,38,1,38,39,36,49,38,38,38,1,52,1,1,1,1,1,1,36,52,36,36,1,1,1,1,1,1,1,1,1,1,1,1,36,36,36,1,1,1,1,1,1,36,36,36,1,1,1,1,1,1,1,36,36,36,36,36,52,1,1,1,1,52,36,1,1,1,1,1,1,1,1,36,52,1,1,1,
1,1,52,38,36,39,36,36,36,36,1,1,1,1,65,51,51,51,51,51,83,51,51,51,51,51,67,51,51,51,51,51,51,70,1,1,1,1,1,1,1,65,51,51,51,51,51,51,51,51,51,51,51,51,51,51,51,51,51,51,51,51,51,51,51,51,51,51,51,51,51,51,51,51,51,51,51,51,51,51,66,1,1,1,1,52,36,36,36,36,36,36,36,36,36,36,52,1,1,1,
1,1,52,36,38,1,1,1,37,36,1,1,1,1,1,1,1,1,1,1,52,49,36,36,36,38,52,1,1,1,1,1,1,52,1,1,1,1,1,1,1,1,1,1,1,1,1,1,1,1,1,1,36,36,36,36,36,36,1,1,1,1,1,1,1,1,1,1,1,1,1,1,1,1,1,1,1,1,1,1,1,1,1,1,1,69,51,51,51,51,51,51,51,51,51,51,70,1,1,1,
1,1,52,1,36,1,38,36,36,36,1,1,1,1,1,1,1,1,1,1,52,49,1,36,38,49,52,1,36,49,49,1,38,52,36,1,1,1,1,1,1,1,1,1,1,1,1,1,1,1,1,1,1,1,1,1,1,1,1,1,1,1,1,1,1,1,1,1,1,1,1,1,1,1,1,1,1,1,1,1,1,1,1,1,1,52,1,36,36,1,1,1,1,1,1,1,52,1,1,1,
1,1,52,49,36,1,49,39,38,36,1,1,1,1,1,1,1,1,1,1,52,36,38,36,39,50,52,36,1,1,1,1,39,52,36,36,36,1,1,1,1,1,1,1,1,1,1,1,1,1,1,1,1,1,1,1,1,1,1,1,1,1,1,1,1,1,1,1,1,1,1,1,1,1,1,1,1,1,1,1,1,1,1,1,1,52,36,36,36,36,36,36,36,1,1,1,52,1,1,1,
1,1,52,1,1,36,36,36,36,36,1,1,1,1,1,1,1,1,1,1,52,1,36,36,39,36,52,38,1,1,1,1,39,52,36,36,36,36,1,1,1,1,1,1,1,1,1,1,1,1,1,1,1,1,1,1,1,1,1,1,1,1,1,36,36,36,1,1,1,1,1,1,1,36,36,36,36,1,1,1,1,1,1,1,36,52,1,36,1,1,1,1,36,1,1,1,52,1,1,1,
1,1,69,51,51,51,51,51,51,51,51,51,51,51,56,1,1,1,1,1,65,51,51,51,51,51,68,51,81,1,1,82,51,83,51,51,51,51,51,51,67,51,81,1,1,82,51,67,51,51,51,51,51,67,51,51,51,51,51,67,51,51,51,51,51,51,51,51,51,67,51,51,51,51,51,51,51,51,51,67,51,51,51,51,51,68,51,51,51,51,67,51,51,51,51,51,70,1,1,1,
1,1,52,37,49,37,38,1,50,50,50,50,38,39,52,1,1,1,1,1,1,1,1,1,1,1,1,1,1,1,1,1,1,52,38,36,36,36,36,38,52,1,1,1,1,1,36,52,49,36,49,49,39,52,1,49,49,36,1,52,37,37,38,36,49,37,1,36,50,52,38,37,39,39,49,39,1,50,50,52,1,39,38,1,37,36,49,49,1,38,52,39,39,49,36,39,52,1,1,1,
1,1,52,38,39,36,36,49,37,38,36,49,39,1,52,1,1,1,1,1,1,1,1,1,1,1,1,1,1,1,1,1,1,52,36,36,37,1,36,1,52,1,1,1,1,1,36,52,37,39,50,39,38,52,50,50,49,1,1,52,38,50,39,36,39,36,49,1,38,52,36,38,37,38,39,39,49,49,49,52,37,1,1,50,38,50,49,50,49,1,52,36,36,37,37,37,52,1,1,1,
1,1,52,38,37,1,50,50,49,37,1,38,1,37,52,39,36,36,1,1,1,1,1,1,1,1,1,1,1,1,1,1,1,52,1,50,39,38,50,39,52,1,1,1,1,1,1,52,38,49,1,49,1,52,1,1,1,1,1,52,39,50,36,50,38,50,39,38,36,52,37,1,39,36,39,39,38,36,1,52,37,38,1,36,1,38,38,36,36,38,52,37,1,37,1,50,52,1,1,1,
1,1,52,1,39,36,1,50,37,49,1,49,50,50,52,38,49,49,1,1,1,1,1,1,1,1,1,1,1,1,1,1,1,52,36,39,36,38,38,38,52,36,1,1,1,1,1,65,51,51,51,51,51,66,1,1,1,50,1,52,1,37,37,49,49,49,1,49,37,52,36,39,36,39,49,50,37,50,39,52,49,38,1,39,39,50,1,38,38,39,52,50,36,37,38,37,52,1,1,1,
1,1,52,37,38,36,37,36,36,50,50,37,38,38,52,39,50,37,50,49,49,1,1,1,1,1,1,1,1,1,1,1,1,52,36,36,50,36,36,38,52,36,36,1,1,1,1,1,1,1,1,1,1,1,1,1,1,50,1,52,39,38,37,38,36,39,49,39,38,52,50,50,38,1,39,49,36,38,38,52,50,1,1,50,37,39,36,39,50,50,52,50,38,36,37,38,52,1,1,1,
1,1,52,49,38,38,1,39,38,39,36,39,38,37,69,51,51,51,51,51,51,51,51,51,51,51,51,56,1,1,1,1,1,52,36,1,36,36,37,1,52,36,36,1,1,1,1,1,1,1,1,1,1,1,1,1,49,49,1,52,1,50,36,36,39,38,50,49,38,52,50,37,36,37,37,38,36,38,1,52,50,37,49,50,37,38,37,1,1,37,52,50,49,1,38,1,52,1,1,1,
1,1,52,50,39,1,39,49,37,50,1,37,38,39,52,39,38,36,36,49,49,39,49,36,49,49,38,52,1,1,1,1,1,52,36,36,36,1,1,1,52,36,36,36,1,1,1,1,50,50,50,1,1,1,1,1,39,1,1,52,38,39,39,38,39,50,50,36,49,52,50,38,39,38,50,38,36,50,49,52,36,39,39,39,38,38,39,49,36,37,52,37,37,36,39,50,52,1,1,1,
1,1,52,50,36,1,1,50,37,1,36,49,1,1,52,37,37,49,36,1,37,39,39,38,50,36,49,52,1,1,1,1,1,69,51,51,51,51,51,51,83,51,51,51,51,51,51,51,51,51,67,51,51,51,51,51,51,51,51,83,51,51,51,51,51,51,51,51,51,68,51,51,51,51,51,51,51,51,51,68,51,51,51,51,51,51,51,51,51,51,68,51,51,51,51,51,66,1,1,1,
1,1,52,1,50,39,49,36,49,39,36,38,1,49,52,36,37,49,50,38,1,39,49,39,37,38,1,52,1,1,1,1,1,52,38,1,49,1,36,36,52,36,1,1,36,50,39,1,36,1,52,36,36,36,37,49,36,38,1,52,38,36,36,38,36,1,1,49,1,1,1,1,1,1,1,1,1,1,1,1,1,1,1,1,1,1,1,1,1,1,1,1,1,1,1,1,1,1,1,1,
1,1,52,50,38,37,50,1,39,50,49,38,37,1,69,51,51,51,51,51,51,51,51,51,51,51,51,70,1,1,1,1,1,52,36,36,36,37,1,36,52,39,1,36,49,37,39,49,36,38,52,36,36,50,36,39,50,49,36,52,37,36,49,1,36,36,37,1,1,1,1,1,1,1,1,1,1,1,1,1,1,1,1,1,1,1,1,1,1,1,1,1,1,1,1,1,1,1,1,1,
1,1,52,36,37,50,38,39,39,38,36,1,39,36,52,1,1,1,50,1,50,50,39,1,36,1,1,52,1,1,1,1,1,52,39,50,1,39,1,36,52,1,1,39,1,50,38,36,36,49,52,36,38,50,1,38,1,38,1,52,36,1,36,1,1,38,1,1,1,1,1,1,1,1,1,1,1,1,1,1,1,1,1,1,1,1,1,1,1,1,1,1,1,1,1,1,1,1,1,1,
1,1,52,50,39,36,50,49,39,49,49,37,49,1,52,1,1,1,39,38,49,49,39,39,1,1,1,52,1,1,1,1,1,52,36,49,38,1,37,36,52,37,36,49,38,38,1,38,49,1,52,36,36,39,36,38,1,49,49,52,39,49,38,39,50,1,1,1,1,1,1,1,1,1,1,1,1,1,1,1,1,1,1,1,1,1,1,1,1,1,1,1,1,1,1,1,1,1,1,1,
1,1,52,38,49,39,1,38,37,37,38,50,49,1,52,1,1,1,1,1,36,36,1,1,1,1,1,52,1,1,1,1,1,52,36,49,39,36,37,1,52,36,1,1,38,36,37,1,38,1,52,50,37,1,1,36,38,37,36,52,39,36,50,37,1,1,1,1,1,1,1,1,1,1,1,1,1,1,1,1,1,1,1,1,1,1,1,1,1,1,1,1,1,1,1,1,1,1,1,1,
1,1,52,36,1,49,50,37,50,50,36,38,50,50,52,1,1,1,1,1,1,1,1,1,1,1,49,52,1,1,1,1,1,52,36,37,36,38,39,1,52,1,37,1,1,38,36,38,36,1,52,36,49,38,38,49,50,36,36,52,1,1,1,1,1,1,1,1,1,1,1,1,1,1,1,1,1,1,1,1,1,1,1,1,1,1,1,1,1,1,1,1,1,1,1,1,1,1,1,1,
1,1,52,38,1,36,50,49,38,39,50,1,50,39,52,36,36,1,1,1,1,1,1,1,39,37,49,52,1,1,1,1,1,52,36,49,36,36,36,39,52,36,39,36,1,49,36,38,1,49,52,1,36,49,50,50,50,37,1,52,1,1,1,1,1,1,1,1,1,1,1,1,1,1,1,1,1,1,1,1,1,1,1,1,1,1,1,1,1,1,1,1,1,1,1,1,1,1,1,1,
1,1,69,51,51,51,51,51,51,51,51,51,51,51,83,51,51,51,51,81,1,1,82,51,51,51,51,70,1,1,1,1,1,52,1,36,1,36,39,38,52,36,36,36,38,1,36,36,37,36,52,36,36,50,38,38,39,39,37,52,1,38,1,1,1,1,1,1,1,1,1,1,1,1,1,1,1,1,1,1,1,1,1,1,1,1,1,1,1,1,1,1,1,1,1,1,1,1,1,1,
1,1,52,1,38,49,38,38,38,38,37,49,49,1,71,36,36,36,1,1,1,1,1,1,1,1,1,71,1,1,1,1,1,52,1,37,36,36,1,38,52,1,1,36,36,39,39,38,38,49,52,49,49,36,36,36,37,50,49,52,1,1,1,1,1,1,1,1,1,1,1,1,1,1,1,1,1,1,1,1,1,1,1,1,1,1,1,1,1,1,1,1,1,1,1,1,1,1,1,1,
1,1,52,50,36,1,1,1,1,1,1,1,1,1,1,1,1,1,1,1,1,1,1,1,1,1,1,1,1,1,1,1,1,69,51,51,51,51,51,51,83,51,51,51,51,51,51,51,51,51,83,51,51,51,51,51,51,51,51,66,1,1,1,1,1,1,1,1,1,1,1,1,1,1,1,1,1,1,1,1,1,1,1,1,1,1,1,1,1,1,1,1,1,1,1,1,1,1,1,1,
1,1,52,49,1,1,1,1,1,1,1,1,1,1,1,1,1,1,1,1,1,1,1,1,1,1,1,1,1,1,1,1,1,52,1,1,1,36,36,1,52,37,37,37,1,49,39,39,1,1,52,1,1,1,1,1,1,1,1,1,1,1,1,1,1,1,1,1,1,1,1,1,1,1,1,1,1,1,1,1,1,1,1,1,1,1,1,1,1,1,1,1,1,1,1,1,1,1,1,1,
1,1,52,49,1,1,1,1,1,1,1,1,36,36,72,1,1,1,1,1,1,1,1,36,36,1,1,72,1,1,1,1,1,52,1,1,36,1,1,36,52,1,1,36,36,49,1,49,49,1,52,1,1,1,1,1,1,1,1,1,1,1,1,1,1,1,1,1,1,1,1,1,1,1,1,1,1,1,1,1,1,1,1,1,1,1,1,1,1,1,1,1,1,1,1,1,1,1,1,1,
1,1,69,51,51,51,81,1,1,82,51,51,51,51,83,51,51,51,51,51,51,51,51,51,51,51,51,70,1,1,1,1,1,71,1,36,36,1,1,36,71,1,1,1,1,38,37,36,36,1,52,1,1,1,1,1,1,1,1,1,1,1,1,1,1,1,1,1,1,1,1,1,1,1,1,1,1,1,1,1,1,1,1,1,1,1,1,1,1,1,1,1,1,1,1,1,1,1,1,1,
1,1,52,1,36,1,1,1,1,1,1,1,38,39,52,36,49,36,1,49,38,50,36,49,36,1,49,52,1,1,1,1,1,1,1,1,1,1,1,1,1,1,1,1,1,36,1,1,1,1,52,1,1,1,1,1,1,1,1,1,1,1,1,1,1,1,1,1,1,1,1,1,1,1,1,1,1,1,1,1,1,1,1,1,1,1,1,1,1,1,1,1,1,1,1,1,1,1,1,1,
1,1,52,49,36,1,1,1,1,1,1,1,37,39,52,37,39,37,50,50,37,38,38,38,36,37,1,52,1,1,1,1,1,1,1,1,1,1,1,1,1,1,1,1,1,1,1,1,1,1,52,1,1,1,1,1,1,1,1,1,1,1,1,1,1,1,1,1,1,1,1,1,1,1,1,1,1,1,1,1,1,1,1,1,1,1,1,1,1,1,1,1,1,1,1,1,1,1,1,1,
1,1,52,38,39,1,37,37,37,39,1,1,37,39,52,38,49,39,36,49,1,38,49,37,38,39,49,52,1,1,1,1,1,72,36,1,1,1,1,36,72,1,1,1,1,1,1,1,36,1,52,1,1,1,1,1,1,1,1,1,1,1,1,1,1,1,1,1,1,1,1,1,1,1,1,1,1,1,1,1,1,1,1,1,1,1,1,1,1,1,1,1,1,1,1,1,1,1,1,1,
1,1,52,50,38,50,39,38,37,37,1,1,1,38,69,51,51,51,51,51,51,51,51,51,51,51,51,66,1,1,1,1,1,52,36,36,1,1,36,1,52,36,1,1,1,1,1,1,36,1,52,1,1,1,1,1,1,1,1,1,1,1,1,1,1,1,1,1,1,1,1,1,1,1,1,1,1,1,1,1,1,1,1,1,1,1,1,1,1,1,1,1,1,1,1,1,1,1,1,1,
1,1,52,1,39,49,1,1,1,1,1,1,50,49,52,36,36,36,36,1,36,36,36,1,1,1,1,1,1,1,1,1,1,52,1,1,36,1,36,1,52,36,36,1,1,1,36,36,1,1,52,1,1,1,1,1,1,1,1,1,1,1,1,1,1,1,1,1,1,1,1,1,1,1,1,1,1,1,1,1,1,1,1,1,1,1,1,1,1,1,1,1,1,1,1,1,1,1,1,1,
1,1,52,1,1,49,1,1,1,1,39,39,38,39,52,36,1,1,36,36,36,36,36,36,1,1,1,1,1,1,1,1,1,52,1,1,1,1,1,1,52,36,36,36,1,1,36,1,36,1,52,1,1,1,1,1,1,1,1,1,1,1,1,1,1,1,1,1,1,1,1,1,1,1,1,1,1,1,1,1,1,1,1,1,1,1,1,1,1,1,1,1,1,1,1,1,1,1,1,1,
1,1,69,51,51,51,67,51,51,51,51,51,51,51,66,1,1,1,1,1,1,1,1,1,1,1,1,1,1,1,1,1,1,69,51,51,51,51,51,51,83,51,51,81,1,1,82,51,51,51,70,1,1,1,1,1,1,1,1,1,1,1,1,1,1,1,1,1,1,1,1,1,1,1,1,1,1,1,1,1,1,1,1,1,1,1,1,1,1,1,1,1,1,1,1,1,1,1,1,1,
1,1,52,37,36,49,52,36,36,1,1,1,1,1,1,1,1,1,1,1,1,1,1,1,1,1,1,1,1,1,1,1,1,52,39,37,37,39,49,39,52,36,36,36,1,1,1,39,37,1,52,1,1,1,1,1,1,1,1,1,1,1,1,1,1,1,1,1,1,1,1,1,1,1,1,1,1,1,1,1,1,1,1,1,1,1,1,1,1,1,1,1,1,1,1,1,1,1,1,1,
1,1,52,39,1,1,52,36,1,1,1,1,1,1,1,1,1,1,1,1,1,1,1,1,1,1,1,1,1,1,1,1,1,52,39,38,36,37,50,1,52,1,38,1,1,1,1,1,49,1,52,1,1,1,1,1,1,1,1,1,1,1,1,1,1,1,1,1,1,1,1,1,1,1,1,1,1,1,1,1,1,1,1,1,1,1,1,1,1,1,1,1,1,1,1,1,1,1,1,1,
1,1,52,37,50,49,52,36,1,1,55,51,51,51,51,51,51,51,51,51,51,67,51,51,51,51,67,51,81,1,1,82,51,70,38,49,1,49,50,36,52,36,49,1,1,1,1,1,36,38,52,1,1,1,1,1,1,1,1,1,1,1,1,1,1,1,1,1,1,1,1,1,1,1,1,1,1,1,1,1,1,1,1,1,1,1,1,1,1,1,1,1,1,1,1,1,1,1,1,1,
1,1,52,36,49,39,52,1,1,1,52,38,49,36,1,50,36,50,38,1,1,52,38,1,36,37,52,36,1,1,1,1,1,52,39,39,39,49,50,37,52,38,38,1,1,1,1,36,49,49,52,1,1,1,1,1,1,1,1,1,1,1,1,1,1,1,1,1,1,1,1,1,1,1,1,1,1,1,1,1,1,1,1,1,1,1,1,1,1,1,1,1,1,1,1,1,1,1,1,1,
1,1,52,38,50,39,52,1,1,1,52,36,1,49,36,37,36,1,38,50,1,52,1,1,1,50,52,36,1,1,1,1,1,52,1,37,36,36,38,50,52,36,36,1,1,1,1,1,36,36,52,1,1,1,1,1,1,1,1,1,1,1,1,1,1,1,1,1,1,1,1,1,1,1,1,1,1,1,1,1,1,1,1,1,1,1,1,1,1,1,1,1,1,1,1,1,1,1,1,1,
1,1,52,1,38,38,52,1,1,1,71,1,1,1,1,1,1,36,1,37,1,52,36,38,39,50,52,1,1,1,1,1,1,52,49,38,50,49,49,50,52,39,38,36,1,1,1,1,1,1,52,1,1,1,1,1,1,1,1,1,1,1,1,1,1,1,1,1,1,1,1,1,1,1,1,1,1,1,1,1,1,1,1,1,1,1,1,1,1,1,1,1,1,1,1,1,1,1,1,1,
1,1,52,38,50,37,52,1,1,1,1,1,1,1,1,1,1,1,1,1,50,69,51,51,51,51,66,1,1,1,1,36,36,52,38,38,49,49,38,39,52,36,38,1,1,36,1,37,37,38,52,1,1,1,1,1,1,1,1,1,1,1,1,1,1,1,1,1,1,1,1,1,1,1,1,1,1,1,1,1,1,1,1,1,1,1,1,1,1,1,1,1,1,1,1,1,1,1,1,1,
1,1,52,39,38,39,52,1,1,1,1,49,1,1,1,1,1,1,1,38,50,52,1,1,1,1,1,1,1,1,36,1,1,52,38,39,39,39,1,50,52,39,36,1,1,36,38,38,49,36,52,1,1,1,1,1,1,1,1,1,1,1,1,1,1,1,1,1,1,1,1,1,1,1,1,1,1,1,1,1,1,1,1,1,1,1,1,1,1,1,1,1,1,1,1,1,1,1,1,1,
1,1,52,38,1,50,52,36,1,1,72,36,49,37,1,1,1,1,1,36,50,52,1,1,1,1,1,36,36,39,49,1,1,52,39,38,49,39,50,39,52,36,38,1,39,1,50,1,38,36,52,1,1,1,1,1,1,1,1,1,1,1,1,1,1,1,1,1,1,1,1,1,1,1,1,1,1,1,1,1,1,1,1,1,1,1,1,1,1,1,1,1,1,1,1,1,1,1,1,1,
1,1,52,1,39,1,52,36,36,1,52,37,1,39,49,1,1,1,1,36,36,52,37,36,39,50,39,36,50,50,39,50,1,52,38,1,50,50,36,49,52,36,36,39,49,1,38,38,50,1,52,1,1,1,1,1,1,1,1,1,1,1,1,1,1,1,1,1,1,1,1,1,1,1,1,1,1,1,1,1,1,1,1,1,1,1,1,1,1,1,1,1,1,1,1,1,1,1,1,1,
1,1,52,49,36,50,52,36,36,36,52,50,37,37,36,1,1,1,1,36,36,52,1,38,50,49,36,36,36,36,36,36,36,52,38,1,38,49,39,49,52,1,1,36,50,36,36,36,1,1,52,1,1,1,1,1,1,1,1,1,1,1,1,1,1,1,1,1,1,1,1,1,1,1,1,1,1,1,1,1,1,1,1,1,1,1,1,1,1,1,1,1,1,1,1,1,1,1,1,1,
1,1,65,51,51,51,68,51,51,51,68,51,51,51,56,1,1,55,51,51,51,68,51,51,51,51,51,51,51,51,51,51,51,68,51,51,51,51,51,51,68,51,51,51,51,51,51,51,51,51,66,1,1,1,1,1,1,1,1,1,1,1,1,1,1,1,1,1,1,1,1,1,1,1,1,1,1,1,1,1,1,1,1,1,1,1,1,1,1,1,1,1,1,1,1,1,1,1,1,1,
1,1,1,1,1,1,1,1,1,1,1,1,1,1,52,1,1,52,1,1,1,1,1,1,1,1,1,1,1,1,1,1,1,1,1,1,1,1,1,1,1,1,1,1,1,1,1,1,1,1,1,1,1,1,1,1,1,1,1,1,1,1,1,1,1,1,1,1,1,1,1,1,1,1,1,1,1,1,1,1,1,1,1,1,1,1,1,1,1,1,1,1,1,1,1,1,1,1,1,1,
1,1,1,1,1,1,1,1,1,1,1,1,1,1,52,1,1,52,1,1,1,1,1,1,1,1,1,1,1,1,1,1,1,1,1,1,1,1,1,1,1,1,1,1,1,1,1,1,1,1,1,1,1,1,1,1,1,1,1,1,1,1,1,1,1,1,1,1,1,1,1,1,1,1,1,1,1,1,1,1,1,1,1,1,1,1,1,1,1,1,1,1,1,1,1,1,1,1,1,1

[layer]
type=functional
data=
305,306,307,308,309,310,311,312,313,314,315,316,317,318,319,320,0,0,0,0,0,0,0,0,0,0,0,0,0,0,0,0,0,0,0,0,0,0,0,0,0,0,0,0,0,0,0,0,0,0,0,0,0,0,0,0,0,0,0,0,0,0,0,0,0,0,0,0,0,0,0,0,0,0,0,0,0,0,0,0,0,0,0,0,0,0,0,0,0,0,0,0,0,0,0,0,0,0,0,0,
322,323,323,324,325,324,323,323,324,323,323,332,333,334,335,336,0,0,0,0,0,0,0,0,0,0,0,0,0,0,0,0,0,0,0,0,0,0,0,0,0,0,0,0,0,0,0,0,0,0,0,0,0,0,0,0,0,0,0,0,0,0,0,0,0,0,0,0,0,0,0,0,0,0,0,0,0,0,0,0,0,0,0,0,0,0,0,0,0,0,0,0,0,0,0,0,0,0,0,0,
0,0,0,0,0,0,0,0,0,0,0,0,0,0,0,0,0,0,0,0,0,0,0,0,0,0,0,0,0,0,0,0,0,0,0,0,0,0,0,0,0,0,0,0,0,0,0,0,0,0,0,0,0,0,0,0,0,0,0,0,0,0,0,0,0,0,0,0,0,0,0,0,0,0,0,0,0,0,0,0,0,0,0,0,0,0,0,0,0,0,0,0,0,0,0,0,0,0,0,0,
0,0,0,0,0,337,0,0,0,337,0,0,0,0,0,0,0,0,0,0,0,0,0,0,0,0,0,0,0,0,0,0,0,0,0,337,0,0,337,0,0,0,0,337,0,0,0,337,0,0,0,337,0,0,0,0,0,0,0,0,0,0,0,0,0,0,0,0,0,0,0,0,0,0,0,337,0,0,0,0,337,0,0,0,0,0,0,0,0,0,0,0,0,0,0,0,0,0,0,0,
0,0,0,0,0,0,0,0,0,0,292,292,0,0,0,0,0,0,0,0,0,0,0,0,0,0,0,0,0,0,0,0,0,0,0,0,0,0,0,292,292,0,0,0,0,0,0,0,293,293,0,0,0,0,0,0,0,0,0,0,0,0,0,0,0,0,0,0,0,0,0,0,292,292,0,0,0,0,0,0,0,0,292,292,0,0,0,0,0,0,292,292,294,0,0,0,0,0,0,0,
0,0,337,0,289,0,0,0,0,0,292,292,0,0,0,0,0,0,0,0,0,0,0,0,0,0,0,0,0,0,0,0,354,0,0,0,0,0,0,0,0,258,0,0,0,0,0,0,0,0,0,0,0,0,0,0,0,0,0,0,0,0,0,0,0,0,0,0,0,0,337,292,292,292,0,0,0,0,0,277,0,0,292,292,337,0,0,295,0,0,292,292,0,0,0,0,0,0,0,0,
0,0,0,0,0,0,0,0,0,0,0,292,0,0,0,0,0,0,0,0,0,0,0,0,0,0,0,0,0,273,0,0,354,0,0,0,0,0,0,0,0,258,0,0,0,0,0,0,0,0,0,0,0,0,0,274,0,0,0,0,0,0,0,0,0,0,0,0,0,0,0,292,292,0,0,0,0,0,0,0,0,0,0,0,0,0,0,0,0,0,0,0,0,0,0,0,0,0,0,0,
0,0,0,0,0,0,0,0,0,0,0,0,0,0,0,0,0,0,0,0,0,0,0,0,0,0,0,0,0,0,0,0,0,0,0,0,0,0,0,292,292,0,0,0,0,0,0,292,292,0,0,0,0,0,0,0,0,0,0,0,0,0,0,0,0,0,0,0,0,0,0,292,0,0,0,0,0,0,0,0,0,0,0,0,0,0,0,0,0,0,0,0,0,0,0,0,0,0,0,0,
0,0,0,0,0,0,0,0,353,353,0,0,0,337,0,0,257,257,0,337,0,0,0,0,0,337,0,0,0,0,0,0,0,0,337,0,0,0,0,337,0,0,0,337,0,0,0,337,0,0,0,337,0,0,0,0,0,0,0,0,0,0,0,0,0,0,0,0,292,292,0,0,0,0,0,0,0,0,0,0,0,0,0,0,0,0,0,0,0,0,0,0,0,0,0,0,0,0,0,0,
0,0,0,0,0,0,0,0,0,0,0,0,0,0,0,0,0,0,0,0,0,0,0,0,0,0,0,0,0,0,0,0,0,0,0,0,0,0,0,0,0,0,0,0,0,0,0,292,0,0,0,0,0,0,0,0,0,0,0,0,0,292,292,0,0,0,0,0,292,292,0,0,0,0,0,0,0,0,0,0,0,0,0,0,337,0,0,292,292,0,0,0,0,0,0,0,0,0,0,0,
0,0,0,0,0,0,0,0,0,0,0,0,0,0,0,0,0,0,0,0,0,0,0,0,0,0,0,0,0,0,0,337,0,0,0,0,0,0,0,0,0,0,0,0,0,0,292,292,0,0,0,291,0,0,0,0,0,0,0,0,0,292,0,0,0,295,0,0,0,0,337,0,0,0,0,337,0,0,0,0,337,0,0,0,0,0,0,292,292,0,0,0,0,0,0,0,0,0,0,0,
0,0,0,0,0,0,0,0,0,0,0,0,0,0,0,0,0,0,0,0,0,0,0,0,0,0,0,0,0,0,0,0,0,0,0,0,0,0,0,0,0,0,0,0,0,0,0,292,0,0,0,0,0,0,0,0,0,0,0,0,0,292,292,0,0,0,0,0,0,0,0,0,0,0,0,0,0,0,0,0,0,0,0,0,0,0,0,0,0,0,0,0,0,0,0,0,0,0,0,0,
0,0,0,0,0,0,0,0,337,0,0,0,0,0,337,0,0,0,0,0,0,291,0,0,0,0,0,0,0,0,0,354,0,0,0,0,0,0,259,0,292,0,0,0,0,0,0,0,0,0,0,0,0,0,0,0,0,337,0,0,0,0,337,0,0,0,0,0,0,337,0,0,0,0,0,0,291,0,0,0,0,0,0,0,0,0,0,0,0,0,0,0,0,0,0,0,0,0,0,0,
0,0,0,0,0,0,0,0,0,0,0,0,0,0,0,0,0,0,0,0,0,0,0,0,0,0,0,0,0,0,0,354,0,0,0,0,0,0,259,0,0,292,0,0,0,0,0,0,0,0,0,0,0,0,0,0,0,292,0,0,0,292,292,0,292,0,0,0,0,0,0,261,261,261,0,0,0,0,0,0,0,0,0,0,0,0,0,0,0,0,0,0,0,0,0,0,0,0,0,0,
0,0,0,0,0,0,0,292,292,292,0,0,0,294,292,0,0,0,0,0,0,0,0,0,0,0,0,0,292,292,0,0,0,0,0,0,0,0,259,0,0,0,0,0,0,0,0,0,0,0,0,0,0,0,0,0,0,0,0,0,0,292,292,0,292,0,0,0,0,0,0,0,0,0,0,0,292,292,292,0,0,0,0,0,0,0,0,0,0,0,0,0,0,0,0,0,0,0,0,0,
0,0,0,0,0,0,0,292,292,292,0,0,0,292,292,0,0,0,0,0,0,0,0,0,0,0,0,0,292,292,292,0,0,0,0,0,292,292,259,0,0,0,0,0,0,0,0,0,0,0,0,0,0,0,0,0,0,0,0,0,0,0,0,0,0,0,0,0,0,0,0,0,0,292,292,337,0,0,0,0,337,0,0,0,0,0,0,0,0,0,0,292,292,292,0,0,0,0,0,0,
0,0,0,0,0,0,0,0,0,0,0,0,0,0,0,0,0,0,0,0,0,0,0,0,0,0,0,0,0,0,0,0,337,0,0,0,0,337,0,0,0,0,0,0,0,0,0,337,0,0,0,0,337,0,0,0,0,0,0,0,0,295,0,0,0,0,0,0,0,0,0,292,292,292,292,0,0,0,0,0,0,0,0,0,0,0,0,0,0,0,0,292,292,292,0,0,0,0,0,0,
0,0,0,0,0,0,0,0,0,0,291,0,0,0,0,0,0,0,0,0,0,0,0,0,0,0,0,0,0,0,0,0,0,0,0,0,0,0,0,0,0,0,0,0,0,0,0,0,0,0,0,0,0,0,0,0,0,259,0,292,292,0,0,0,0,0,0,0,293,0,0,0,337,0,0,0,0,0,0,0,0,262,262,262,262,0,0,0,0,337,0,0,0,337,0,0,0,0,0,0,
0,0,0,0,0,0,0,0,0,0,0,0,0,0,0,0,0,0,0,0,0,0,0,0,0,0,0,0,0,0,0,0,0,0,0,0,0,292,0,0,0,0,0,0,0,0,0,0,0,0,0,0,0,0,0,0,0,259,0,292,292,0,0,0,0,0,0,0,293,0,0,0,0,0,0,0,0,0,0,0,0,0,0,0,0,0,0,0,0,0,0,0,0,0,0,0,0,0,0,0,
0,0,0,0,0,0,0,0,0,0,0,0,0,0,0,0,0,0,0,0,0,0,0,0,0,0,0,0,0,0,0,0,0,0,0,0,292,292,0,0,0,0,0,0,0,0,275,0,0,0,0,0,0,0,0,0,0,0,259,292,0,0,0,0,0,0,0,0,293,337,0,0,0,0,0,0,0,0,0,0,0,0,0,0,0,0,0,0,0,0,0,0,0,0,0,0,0,0,0,0,
0,0,0,0,0,0,0,0,0,0,0,0,0,0,0,0,0,0,0,0,0,0,0,0,0,0,0,0,0,0,0,0,0,0,0,0,0,0,0,0,0,0,0,0,0,0,0,0,0,0,0,0,0,0,0,0,0,0,0,0,0,0,0,0,0,0,0,0,0,0,0,0,0,0,0,0,0,0,0,0,337,0,0,0,0,337,0,0,0,0,0,0,0,0,0,0,0,0,0,0,
0,0,0,0,0,0,0,0,337,0,0,0,0,337,0,0,0,0,337,0,0,0,0,337,0,0,0,0,0,0,0,0,0,0,0,0,0,0,0,0,0,0,0,293,0,0,0,0,0,337,0,0,0,337,0,0,0,0,337,0,0,0,0,0,0,0,0,0,0,0,0,0,0,0,0,0,0,0,0,0,0,0,0,0,0,0,0,0,0,0,0,0,0,0,0,0,0,0,0,0,
0,0,0,0,0,0,0,0,0,0,0,0,0,0,0,0,0,0,0,0,0,0,0,0,0,0,0,0,0,0,0,0,0,0,0,0,0,0,0,0,0,0,0,293,0,0,0,0,0,0,0,0,0,0,0,0,0,0,0,0,0,0,0,0,0,0,0,0,0,0,0,0,0,0,0,0,0,0,0,0,0,0,0,0,293,0,0,0,0,0,0,0,0,0,0,0,0,0,0,0,
0,0,0,0,0,0,0,0,0,0,0,0,0,0,0,0,0,0,0,0,0,0,0,0,0,0,0,292,0,0,0,0,0,0,0,0,0,0,0,0,0,0,0,293,0,0,0,0,0,0,0,0,0,0,0,0,0,0,0,0,0,0,0,0,0,0,0,0,0,337,0,0,0,0,0,0,0,0,0,0,0,0,0,0,293,0,0,0,0,0,0,0,0,0,0,0,0,0,0,0,
0,0,0,0,0,0,0,0,0,0,0,0,0,0,0,0,0,0,0,0,0,0,0,0,0,0,0,292,292,292,0,0,0,0,0,0,0,0,0,0,0,0,337,0,0,0,0,0,0,0,0,0,0,0,0,0,0,0,0,0,0,0,0,0,0,0,0,0,0,0,0,0,0,0,0,0,0,0,0,292,337,0,0,0,0,337,0,0,0,0,0,0,0,0,0,0,0,0,0,0,
0,0,0,0,0,0,0,0,0,0,0,0,0,0,0,0,0,0,0,0,0,0,0,0,0,0,337,0,0,0,0,337,0,0,0,0,0,0,0,0,0,0,0,0,0,0,0,0,0,0,295,292,0,0,0,0,0,0,0,0,0,291,0,337,0,0,0,0,0,0,0,0,0,0,0,0,0,0,0,292,0,0,0,0,0,0,0,0,0,0,0,0,0,0,0,0,0,0,0,0,
0,0,0,0,0,0,0,0,0,0,0,337,0,0,0,0,0,0,337,0,0,0,0,0,0,0,0,0,0,0,0,0,0,0,0,0,0,0,0,0,0,0,0,0,0,0,0,0,0,0,0,292,0,0,0,0,0,0,0,0,0,0,0,0,0,0,0,0,0,0,0,0,0,0,0,0,0,0,0,292,0,0,0,0,0,0,0,0,0,0,0,0,0,0,0,0,0,0,0,0,
0,0,0,0,0,0,265,265,265,0,0,0,0,0,0,0,0,0,0,0,0,0,0,0,0,0,0,0,0,0,0,0,0,0,0,0,0,0,0,0,0,0,0,0,0,0,0,0,0,0,0,292,0,0,0,0,0,0,0,0,0,0,0,0,0,0,0,0,0,337,0,0,0,0,0,0,0,0,0,0,337,0,0,0,0,337,0,0,0,0,0,0,0,0,0,0,0,0,0,0,
0,0,0,0,0,0,0,0,0,0,0,0,0,0,0,0,0,0,291,0,0,0,0,0,0,0,0,0,0,0,0,0,0,0,0,0,0,0,0,0,0,0,0,0,0,0,0,0,0,0,0,0,0,0,0,0,0,0,0,0,0,0,294,337,0,0,276,0,0,0,0,0,0,0,0,0,0,0,0,0,0,0,0,0,0,0,0,0,0,0,0,0,0,0,0,0,0,0,0,0,
0,0,0,0,0,0,0,0,0,0,0,0,0,0,0,0,0,0,0,0,0,0,0,0,0,0,0,0,0,0,0,0,0,0,0,0,0,0,0,0,0,0,0,0,0,0,0,0,0,0,0,0,0,0,0,0,0,0,292,292,292,0,0,0,0,0,0,0,0,0,0,0,0,0,0,0,0,0,0,0,0,0,278,0,0,0,0,0,0,0,0,0,0,0,0,0,0,0,0,0,
0,0,0,0,0,0,0,0,0,0,0,0,0,0,0,0,0,0,0,0,0,0,0,0,0,0,337,0,292,292,0,337,0,0,0,0,0,0,0,0,0,0,0,0,0,0,0,0,0,337,0,0,0,337,0,0,0,0,337,0,0,0,337,0,0,0,0,0,0,0,0,0,0,0,0,0,0,0,0,0,0,0,0,0,0,0,0,0,0,0,0,0,0,0,0,0,0,0,0,0,
0,0,0,0,0,0,0,0,0,337,0,0,0,0,0,0,0,0,0,0,0,0,0,0,0,0,0,0,292,292,0,0,0,0,0,0,0,0,0,0,0,0,0,0,292,292,0,0,0,0,0,0,0,0,0,0,0,260,0,0,0,0,293,293,0,0,0,0,0,0,0,0,0,0,0,0,0,0,0,0,337,0,0,0,0,337,0,0,0,0,0,0,0,0,0,0,0,0,0,0,
0,0,337,0,0,0,0,0,0,0,0,0,0,0,0,0,0,0,0,0,337,0,0,0,0,0,0,0,0,0,0,0,0,0,0,0,0,0,0,0,0,0,0,0,0,292,292,0,0,0,0,0,0,0,0,0,0,260,0,0,0,0,0,0,0,0,0,292,0,337,0,0,0,0,0,0,292,292,0,0,0,0,0,0,293,0,0,0,0,0,0,0,0,0,0,0,0,0,0,0,
0,0,0,0,0,0,0,0,0,0,0,0,0,0,0,0,0,0,0,0,0,0,0,0,0,0,0,0,0,0,0,0,0,0,0,0,0,0,0,0,0,0,0,0,0,0,292,292,0,0,0,0,0,0,0,0,0,260,0,0,0,0,0,0,0,0,292,292,0,0,0,0,0,0,294,0,292,292,0,0,0,0,0,0,293,0,0,0,0,0,0,0,0,0,0,0,0,0,0,0,
0,0,0,0,0,0,0,0,0,0,0,0,0,0,0,0,0,0,0,0,0,0,0,0,0,0,0,0,0,0,0,0,0,0,0,0,0,0,0,0,0,0,0,0,0,337,0,0,0,337,0,0,0,337,0,0,0,0,337,0,0,0,337,0,0,0,337,0,0,0,0,0,337,0,0,0,0,337,0,0,0,0,0,0,293,0,0,0,0,0,0,0,0,0,0,0,0,0,0,0,
0,0,0,0,0,0,0,0,0,337,0,0,0,0,0,0,0,0,0,0,0,0,0,0,0,0,0,0,0,0,0,0,0,0,0,0,0,0,0,0,0,0,0,0,0,0,0,0,0,0,0,0,0,0,0,0,0,0,0,0,0,0,0,0,0,0,0,0,0,0,0,0,0,0,0,0,0,0,0,0,0,0,0,0,0,337,0,0,0,0,0,0,0,0,0,0,0,0,0,0,
0,0,0,0,0,0,0,0,0,0,0,0,0,0,0,0,0,0,294,0,337,0,0,0,0,0,0,0,0,0,0,0,0,0,0,0,0,0,0,0,0,0,0,0,0,0,0,0,0,0,0,0,0,0,0,0,0,0,0,0,0,0,0,0,0,0,0,264,0,0,0,0,0,0,0,0,0,0,0,0,0,0,0,0,0,0,0,0,0,0,0,0,0,0,0,0,0,0,0,0,
0,0,337,0,0,0,0,0,0,0,0,0,0,0,0,0,0,0,0,0,0,0,0,0,0,0,0,0,0,0,0,0,0,0,0,0,0,0,0,0,0,0,0,0,0,0,0,0,0,280,0,0,0,0,0,0,0,0,0,0,0,0,0,0,0,0,0,264,0,0,0,0,0,0,0,0,0,0,0,0,0,0,0,0,0,0,0,0,0,0,0,0,0,0,0,0,0,0,0,0,
0,0,0,0,0,0,0,0,0,0,0,0,0,0,0,0,0,0,0,0,0,0,0,0,0,0,0,0,0,0,0,0,0,0,0,0,0,0,0,0,0,0,0,0,0,0,0,0,0,0,0,0,0,0,0,0,0,0,0,0,0,0,0,0,0,0,0,0,0,0,0,0,0,0,0,0,0,0,0,0,0,0,0,0,0,0,0,0,0,0,0,0,0,0,0,0,0,0,0,0,
0,0,0,0,0,0,0,0,0,0,0,0,0,0,0,0,0,0,0,0,0,0,0,0,0,0,0,0,0,0,0,0,0,0,0,0,0,0,0,0,0,0,0,0,0,0,0,337,0,0,0,0,0,0,337,0,0,0,0,0,0,337,0,0,0,0,0,0,337,0,0,0,0,0,0,337,0,0,0,0,0,0,0,0,0,337,0,0,0,0,0,0,0,0,0,0,0,0,0,0,
0,0,0,0,0,0,0,0,0,0,0,0,0,0,337,0,0,0,0,0,0,0,0,0,0,0,0,0,0,0,0,0,0,337,0,0,0,0,0,0,0,0,0,0,0,292,292,0,295,0,0,0,0,0,0,292,0,0,292,292,0,0,0,0,0,0,0,0,0,0,0,0,0,0,0,0,0,0,0,0,0,0,0,0,0,0,0,0,0,0,0,0,0,0,0,0,0,0,0,0,
0,0,0,0,0,0,0,0,0,0,0,0,0,0,0,0,0,0,0,0,0,0,0,0,0,0,0,0,0,0,0,0,0,0,0,0,0,0,0,0,0,0,0,0,0,292,292,292,295,0,0,0,0,0,0,292,0,292,292,0,0,0,0,0,0,0,0,0,0,0,0,0,0,0,0,0,0,0,0,0,0,0,0,0,0,0,0,0,0,0,0,0,0,0,0,0,0,0,0,0,
0,0,0,0,0,0,0,0,0,0,0,0,0,0,0,0,0,0,0,0,0,0,0,0,0,0,0,0,0,0,0,0,0,0,0,0,0,0,0,0,0,0,0,291,0,292,292,292,0,0,0,0,0,0,0,292,292,292,279,0,0,0,0,0,0,0,0,0,0,0,0,0,0,0,0,0,0,0,0,0,355,0,0,0,0,0,0,0,337,0,0,0,0,0,0,0,0,0,0,0,
0,0,0,0,0,0,0,0,281,0,0,0,0,0,0,0,0,0,0,0,0,0,0,0,0,0,0,0,0,0,0,0,0,0,0,0,0,0,0,0,0,0,0,0,0,0,292,0,0,0,0,0,0,0,0,0,0,0,0,0,0,0,0,0,0,0,0,0,0,0,0,0,0,0,0,0,0,0,0,0,355,0,0,0,0,0,0,0,0,0,0,0,0,0,0,0,0,0,0,0,
0,0,0,0,0,0,0,0,0,0,0,0,0,0,337,0,0,0,0,0,0,0,0,0,0,0,0,0,0,0,0,0,0,0,0,0,0,0,0,0,0,0,0,0,0,0,0,0,0,0,0,0,0,0,0,0,0,0,0,0,0,0,0,0,0,0,0,0,0,0,0,0,0,0,0,0,0,0,0,0,0,0,0,0,0,0,0,0,0,0,0,0,0,0,0,0,0,0,0,0,
0,0,0,0,0,0,0,0,0,0,0,0,0,0,0,0,0,0,0,0,0,0,0,0,0,0,0,0,0,0,0,0,0,0,0,0,0,0,0,0,0,0,0,0,0,0,0,0,0,0,337,0,0,0,0,0,0,337,0,0,0,0,0,0,337,0,0,0,0,0,263,337,263,0,0,0,0,0,0,0,0,0,0,0,0,0,0,0,0,0,0,0,0,0,0,0,0,0,0,0,
0,0,0,0,0,0,0,0,0,0,0,0,0,0,0,0,0,0,0,0,0,0,0,0,0,0,0,0,0,0,0,0,0,337,0,0,0,0,0,0,0,0,0,0,0,0,0,0,0,0,337,0,0,0,0,0,0,337,0,0,0,0,0,0,337,0,0,0,0,0,263,337,263,0,0,0,0,0,0,0,0,0,0,0,0,0,0,0,0,0,0,0,0,0,0,0,0,0,0,0,
0,0,0,0,0,0,0,0,0,0,0,0,0,0,0,0,0,0,0,0,0,0,0,337,0,0,0,0,0,0,337,0,0,0,0,0,0,0,0,0,0,0,0,0,292,292,0,0,0,0,292,292,292,0,0,0,0,0,0,0,0,0,0,0,0,0,0,0,0,0,0,0,0,0,0,0,0,0,0,0,0,0,0,0,0,0,0,0,337,0,0,0,0,337,0,0,0,0,0,0,
0,0,0,0,0,0,0,0,0,0,0,0,0,0,0,0,0,0,0,0,0,0,0,0,0,0,0,0,0,0,0,0,0,0,0,0,0,0,0,0,0,0,0,291,292,292,292,0,0,0,292,292,292,0,0,0,0,0,0,0,0,0,0,0,0,0,0,0,0,0,0,0,0,0,0,0,0,0,0,0,355,0,0,0,0,0,292,292,0,0,0,0,0,0,292,0,0,0,0,0,
0,0,0,0,0,0,0,0,0,0,0,0,0,0,0,0,0,0,0,0,0,0,0,0,0,0,0,0,0,0,0,0,0,337,0,0,0,0,0,0,0,0,0,0,292,292,292,0,0,0,0,292,292,0,0,0,0,0,279,0,292,292,0,0,0,0,0,0,0,0,0,0,0,0,0,0,0,0,0,0,355,0,0,0,0,337,292,292,0,0,0,0,0,0,292,295,0,0,0,0,
0,0,0,0,0,0,0,0,0,0,0,0,0,0,337,0,0,0,0,0,0,0,0,0,0,0,0,0,0,0,0,0,0,0,292,0,0,0,0,0,0,0,0,0,292,292,292,0,294,0,0,0,0,0,0,0,0,0,0,0,292,292,292,292,292,0,0,0,0,0,0,0,0,0,0,0,0,0,0,0,0,0,0,0,0,0,0,292,0,0,0,0,0,291,292,0,0,0,0,0,
0,0,0,0,0,0,0,0,0,0,0,0,0,0,0,0,0,0,0,0,0,0,0,0,0,0,0,0,0,0,0,0,0,0,292,0,0,0,0,0,0,0,0,0,292,292,292,0,294,0,0,0,0,0,0,0,0,0,0,0,0,292,292,292,0,0,0,0,0,0,0,0,0,0,0,0,0,0,0,0,0,0,0,0,0,0,0,0,0,0,0,0,0,0,292,0,0,0,0,0,
0,0,0,0,0,0,0,0,0,0,0,0,0,0,0,0,0,0,0,0,0,0,0,0,0,0,0,0,0,0,0,0,0,0,292,0,0,0,0,0,0,0,0,0,0,0,0,337,0,0,0,0,0,0,337,0,0,0,0,0,0,337,0,0,0,0,0,0,337,0,0,0,0,0,0,337,0,0,0,0,0,0,0,0,0,0,0,0,0,0,0,0,0,0,0,0,0,0,0,0,
0,0,0,0,0,0,0,0,0,0,0,0,0,0,0,0,0,0,0,0,0,0,0,0,0,0,0,0,292,292,292,292,0,0,292,0,0,0,0,0,0,0,0,0,0,0,0,0,0,0,0,0,0,0,0,0,0,0,0,0,0,0,0,0,0,0,0,0,0,0,0,0,0,0,0,0,0,0,0,0,0,0,0,0,0,0,0,0,337,0,0,0,0,337,0,0,0,0,0,0,
0,0,0,0,0,0,0,0,0,0,0,0,0,0,0,0,0,0,0,0,0,0,0,0,0,0,0,295,0,0,0,292,0,337,0,0,0,0,0,0,0,0,0,0,0,0,0,0,0,0,0,0,0,0,0,0,0,0,0,0,0,0,0,0,0,0,0,0,0,0,0,0,0,0,0,0,0,0,0,0,0,0,0,0,0,0,0,0,0,0,0,0,0,0,0,0,0,0,0,0,
0,0,0,0,0,0,0,0,0,0,0,0,0,0,0,0,0,0,0,0,337,0,0,0,0,0,0,0,0,292,292,292,0,0,0,0,0,0,0,0,0,0,0,0,0,0,0,0,0,0,0,0,0,0,0,0,0,0,0,0,0,0,0,0,0,0,0,0,0,0,0,0,0,0,0,0,0,0,0,0,0,0,0,0,0,337,0,0,0,0,0,0,0,0,0,0,0,0,0,0,
0,0,0,0,0,0,0,0,0,0,0,0,0,0,0,0,0,0,0,0,0,0,0,0,0,0,0,0,0,0,0,0,0,0,0,0,0,0,0,0,0,0,0,0,0,0,0,0,0,0,0,0,292,292,292,0,0,0,0,0,0,0,0,0,0,0,292,292,292,292,0,0,0,0,0,0,0,0,0,0,0,0,0,0,0,0,0,0,0,0,0,0,0,0,0,0,0,0,0,0,
0,0,0,0,0,0,0,0,0,0,0,337,0,0,0,0,0,0,0,0,0,0,0,0,0,0,0,337,0,0,0,0,337,0,0,0,0,0,0,0,0,0,0,0,0,0,0,0,0,0,337,0,0,0,0,0,337,0,0,0,0,0,337,0,0,0,337,0,0,0,0,0,337,0,0,0,337,0,0,0,0,0,337,0,0,0,0,0,0,0,0,0,0,0,0,0,0,0,0,0,
0,0,0,0,0,0,0,0,0,0,0,0,0,0,0,0,0,0,0,0,266,0,0,0,0,0,0,0,0,0,0,0,0,0,0,0,0,0,0,0,0,292,0,0,0,0,0,0,0,0,0,0,0,0,0,0,0,0,0,0,0,0,0,0,0,0,0,0,0,0,0,0,0,0,0,0,0,0,0,0,0,0,0,0,0,0,0,0,0,0,0,0,0,0,0,0,0,0,0,0,
0,0,0,0,0,0,0,0,0,0,0,0,0,0,0,0,0,0,0,266,0,0,0,0,0,0,0,0,0,0,0,0,0,337,0,0,0,0,0,0,337,292,0,0,0,0,0,0,0,0,0,0,0,0,0,0,0,0,0,337,0,0,0,0,0,0,0,0,0,337,0,0,0,0,0,0,0,0,0,337,0,0,0,0,0,0,0,0,0,0,337,0,0,0,0,0,0,0,0,0,
0,0,0,0,0,0,0,0,0,0,0,0,0,0,337,0,0,0,0,266,0,0,0,0,0,0,0,0,0,0,0,0,0,0,0,0,0,0,0,0,0,0,0,0,0,0,0,0,0,0,0,0,0,0,0,0,0,0,0,0,0,0,0,0,0,0,0,0,0,0,0,0,0,0,0,0,0,0,0,0,0,0,0,0,0,0,0,0,0,0,0,0,0,0,0,0,0,0,0,0,
0,0,0,0,0,0,0,0,0,0,0,0,0,0,0,0,0,0,0,266,0,0,0,0,0,0,0,0,0,0,0,0,0,0,0,0,0,0,0,0,0,0,0,0,0,0,0,0,0,337,0,337,0,0,0,0,0,0,292,0,0,0,0,0,0,0,0,0,0,0,0,0,0,0,0,0,0,0,0,0,0,0,0,0,0,0,0,0,0,0,0,0,0,0,0,0,0,0,0,0,
0,0,0,0,0,0,0,0,0,0,0,0,0,0,0,0,0,0,0,0,0,0,0,0,0,293,293,293,0,0,0,0,0,0,0,0,0,0,0,0,0,0,0,0,0,0,0,0,0,0,0,0,0,0,0,0,0,0,292,0,0,0,0,0,0,0,0,0,0,0,0,0,0,0,0,0,0,0,0,0,0,0,0,0,0,0,0,0,0,0,0,0,0,0,0,0,0,0,0,0,
0,0,0,0,0,0,0,0,0,0,0,0,0,0,0,0,0,337,0,0,0,0,0,0,337,0,0,0,0,0,0,0,0,337,0,0,0,0,0,0,337,0,0,0,291,0,0,0,0,0,0,0,0,0,0,0,0,0,292,337,0,0,0,0,0,0,0,0,0,337,0,0,0,0,0,0,0,0,0,337,0,0,0,0,0,0,0,0,0,0,337,0,0,0,0,0,0,0,0,0,
0,0,0,0,0,0,0,0,0,0,0,0,0,0,0,0,0,0,0,0,0,0,0,0,0,0,0,0,0,0,0,0,0,0,0,0,0,0,0,0,0,0,0,0,0,0,0,0,0,0,0,0,0,0,0,0,0,0,294,0,0,0,0,0,0,0,0,0,0,0,0,0,0,0,0,0,0,0,0,0,0,0,0,0,0,0,0,0,0,0,0,0,0,0,0,0,0,0,0,0,
0,0,0,0,0,0,0,0,0,0,0,0,0,0,0,0,0,0,0,0,0,0,0,0,0,0,0,337,0,0,282,0,0,0,0,0,0,0,0,0,0,0,337,0,0,337,0,0,337,0,0,0,0,337,0,0,337,0,0,0,0,0,0,0,0,0,0,0,0,0,0,0,0,0,0,0,0,0,0,0,0,0,0,0,0,0,0,0,0,0,0,0,0,0,0,0,0,0,0,0,
0,0,0,0,0,0,0,0,0,0,0,0,0,0,0,0,0,0,0,0,0,0,0,0,0,0,0,0,0,0,0,0,0,0,0,0,0,0,0,0,0,0,0,0,0,0,0,0,0,0,0,0,0,0,0,0,0,0,0,0,0,0,0,0,0,0,0,0,0,0,0,0,0,0,0,0,0,0,0,0,0,0,0,0,0,0,0,0,0,0,0,0,0,0,0,0,0,0,0,0,
0,0,0,0,0,0,0,0,0,0,0,0,0,0,0,0,0,0,0,0,0,0,0,0,0,0,0,0,0,0,0,0,0,0,0,0,0,0,0,0,0,0,0,0,0,0,0,0,0,0,0,0,0,0,0,0,0,0,0,0,0,0,0,0,0,0,0,0,0,0,0,0,0,0,0,0,0,0,0,0,0,0,0,0,0,0,0,0,0,0,0,0,0,0,0,0,0,0,0,0,
0,0,0,0,0,0,0,0,0,0,0,0,0,0,0,0,0,0,0,0,0,0,0,0,0,0,0,0,292,0,0,0,0,337,0,0,0,0,0,0,0,0,0,0,0,0,0,0,0,0,0,0,0,0,0,0,0,0,0,0,0,0,0,0,0,0,0,0,0,0,0,0,0,0,0,0,0,0,0,0,0,0,0,0,0,0,0,0,0,0,0,0,0,0,0,0,0,0,0,0,
0,0,0,0,0,0,0,0,0,0,0,0,0,0,0,0,295,0,0,0,0,0,0,0,0,0,0,0,292,0,0,0,0,0,0,0,0,0,0,0,0,0,0,0,0,0,0,0,0,0,0,0,0,0,0,0,0,0,0,0,0,0,0,0,0,0,0,0,0,0,0,0,0,0,0,0,0,0,0,0,0,0,0,0,0,0,0,0,0,0,0,0,0,0,0,0,0,0,0,0,
0,0,0,0,0,0,0,0,0,0,0,0,0,0,337,0,0,0,0,0,0,0,0,292,292,292,0,337,292,0,0,0,0,0,0,0,0,0,0,0,0,0,0,0,0,0,0,0,0,0,0,0,0,0,0,0,0,0,0,0,0,0,0,0,0,0,0,0,0,0,0,0,0,0,0,0,0,0,0,0,0,0,0,0,0,0,0,0,0,0,0,0,0,0,0,0,0,0,0,0,
0,0,0,0,0,0,0,0,0,0,0,0,0,0,0,0,0,0,0,0,0,0,0,292,292,292,0,0,0,0,0,0,0,0,0,0,0,0,0,0,0,0,0,0,0,0,0,0,0,0,0,0,0,0,0,0,0,0,0,0,0,0,0,0,0,0,0,0,0,0,0,0,0,0,0,0,0,0,0,0,0,0,0,0,0,0,0,0,0,0,0,0,0,0,0,0,0,0,0,0,
0,0,0,0,0,0,0,0,0,0,0,0,0,0,0,0,0,0,0,0,0,0,0,0,0,0,0,0,0,0,0,0,0,337,0,0,0,0,0,0,0,0,0,0,0,0,0,0,0,0,0,0,0,0,0,0,0,0,0,0,0,0,0,0,0,0,0,0,0,0,0,0,0,0,0,0,0,0,0,0,0,0,0,0,0,0,0,0,0,0,0,0,0,0,0,0,0,0,0,0,
0,0,0,0,0,0,0,0,0,0,337,0,0,0,0,0,0,0,337,0,0,0,0,337,0,0,0,0,0,0,0,0,0,0,0,0,0,0,0,0,0,0,0,0,0,0,0,0,0,0,0,0,0,0,0,0,0,0,0,0,0,0,0,0,0,0,0,0,0,0,0,0,0,0,0,0,0,0,0,0,0,0,0,0,0,0,0,0,0,0,0,0,0,0,0,0,0,0,0,0,
0,0,0,0,0,0,0,0,0,0,0,0,0,0,0,0,0,0,0,0,0,0,0,0,0,0,0,0,0,0,0,0,0,0,0,0,0,0,0,0,0,0,0,0,0,0,0,0,0,0,0,0,0,0,0,0,0,0,0,0,0,0,0,0,0,0,0,0,0,0,0,0,0,0,0,0,0,0,0,0,0,0,0,0,0,0,0,0,0,0,0,0,0,0,0,0,0,0,0,0,
0,0,0,0,0,0,0,0,0,0,0,0,0,0,0,0,0,0,0,0,0,0,0,0,0,0,0,267,0,0,0,0,0,0,0,337,0,0,337,0,0,0,0,0,0,0,0,0,0,0,0,0,0,0,0,0,0,0,0,0,0,0,0,0,0,0,0,0,0,0,0,0,0,0,0,0,0,0,0,0,0,0,0,0,0,0,0,0,0,0,0,0,0,0,0,0,0,0,0,0,
0,0,0,0,0,0,0,0,0,0,0,0,0,283,0,0,0,0,0,0,0,0,0,0,0,0,0,267,0,0,0,0,0,0,0,0,0,0,0,0,0,0,0,0,0,0,0,0,0,292,0,0,0,0,0,0,0,0,0,0,0,0,0,0,0,0,0,0,0,0,0,0,0,0,0,0,0,0,0,0,0,0,0,0,0,0,0,0,0,0,0,0,0,0,0,0,0,0,0,0,
0,0,0,0,0,0,0,0,0,0,0,0,0,0,0,0,0,293,293,293,0,0,0,0,0,0,0,0,0,0,0,0,0,337,0,0,0,0,0,0,337,0,0,0,0,0,0,0,0,292,0,0,0,0,0,0,0,0,0,0,0,0,0,0,0,0,0,0,0,0,0,0,0,0,0,0,0,0,0,0,0,0,0,0,0,0,0,0,0,0,0,0,0,0,0,0,0,0,0,0,
0,0,0,0,0,337,0,0,0,0,337,0,0,0,0,0,0,0,337,0,0,0,0,337,0,0,0,0,0,0,0,0,0,0,0,0,0,0,0,0,0,0,0,0,0,0,0,0,0,292,337,0,0,0,0,0,0,0,0,0,0,0,0,0,0,0,0,0,0,0,0,0,0,0,0,0,0,0,0,0,0,0,0,0,0,0,0,0,0,0,0,0,0,0,0,0,0,0,0,0,
0,0,0,0,0,0,0,0,0,0,0,0,0,0,0,0,0,0,0,0,0,0,0,0,0,0,0,0,0,0,0,0,0,0,0,0,0,0,0,0,268,0,0,0,0,0,0,0,0,292,0,0,0,0,0,0,0,0,0,0,0,0,0,0,0,0,0,0,0,0,0,0,0,0,0,0,0,0,0,0,0,0,0,0,0,0,0,0,0,0,0,0,0,0,0,0,0,0,0,0,
0,0,0,0,0,0,0,0,0,0,0,0,0,0,0,0,0,0,0,0,0,0,0,0,0,0,0,337,0,0,0,0,0,0,0,0,0,0,0,0,268,0,0,0,0,0,0,0,0,0,0,0,0,0,0,0,0,0,0,0,0,0,0,0,0,0,0,0,0,0,0,0,0,0,0,0,0,0,0,0,0,0,0,0,0,0,0,0,0,0,0,0,0,0,0,0,0,0,0,0,
0,0,0,0,0,0,0,0,0,0,0,0,0,0,0,0,0,0,0,0,0,0,0,0,0,0,0,0,0,0,0,0,0,0,0,0,0,0,0,0,0,0,0,0,0,0,0,0,0,0,0,0,0,0,0,0,0,0,0,0,0,0,0,0,0,0,0,0,0,0,0,0,0,0,0,0,0,0,0,0,0,0,0,0,0,0,0,0,0,0,0,0,0,0,0,0,0,0,0,0,
0,0,0,0,0,0,0,0,0,0,0,291,0,0,0,0,0,0,337,0,0,0,0,337,0,0,0,0,0,0,0,0,0,337,0,0,292,292,0,0,337,0,0,0,0,0,0,0,0,0,337,0,0,0,0,0,0,0,0,0,0,0,0,0,0,0,0,0,0,0,0,0,0,0,0,0,0,0,0,0,0,0,0,0,0,0,0,0,0,0,0,0,0,0,0,0,0,0,0,0,
0,0,0,0,0,0,0,292,292,292,292,0,0,0,0,0,0,0,0,0,0,0,0,0,0,0,0,0,0,0,0,0,0,0,0,0,0,292,0,0,0,0,0,0,0,0,0,0,0,292,0,0,0,0,0,0,0,0,0,0,0,0,0,0,0,0,0,0,0,0,0,0,0,0,0,0,0,0,0,0,0,0,0,0,0,0,0,0,0,0,0,0,0,0,0,0,0,0,0,0,
0,0,0,0,0,0,0,292,292,292,0,0,0,0,0,0,0,0,0,0,0,0,0,0,0,0,0,0,0,0,0,0,0,0,0,292,292,292,0,0,0,0,0,0,0,0,0,0,0,292,0,0,0,0,0,0,0,0,0,0,0,0,0,0,0,0,0,0,0,0,0,0,0,0,0,0,0,0,0,0,0,0,0,0,0,0,0,0,0,0,0,0,0,0,0,0,0,0,0,0,
0,0,0,0,0,0,0,0,337,0,0,0,337,0,0,0,0,0,0,0,0,0,0,0,0,0,0,0,0,0,0,0,0,0,0,337,0,0,337,0,0,0,337,0,0,0,0,337,0,0,0,0,0,0,0,0,0,0,0,0,0,0,0,0,0,0,0,0,0,0,0,0,0,0,0,0,0,0,0,0,0,0,0,0,0,0,0,0,0,0,0,0,0,0,0,0,0,0,0,0,
0,0,0,0,0,0,0,0,0,0,0,0,0,0,0,0,0,0,0,0,0,0,0,0,0,0,0,0,0,0,0,0,0,0,0,0,0,0,0,0,0,0,0,0,0,0,292,0,0,0,0,0,0,0,0,0,0,0,0,0,0,0,0,0,0,0,0,0,0,0,0,0,0,0,0,0,0,0,0,0,0,0,0,0,0,0,0,0,0,0,0,0,0,0,0,0,0,0,0,0,
0,0,0,0,0,0,0,0,0,0,0,0,0,0,0,0,0,0,0,0,0,0,0,0,0,0,0,0,0,0,0,0,0,0,0,0,0,0,0,0,0,0,0,0,0,284,292,292,0,0,0,0,0,0,0,0,0,0,0,0,0,0,0,0,0,0,0,0,0,0,0,0,0,0,0,0,0,0,0,0,0,0,0,0,0,0,0,0,0,0,0,0,0,0,0,0,0,0,0,0,
0,0,0,0,0,0,0,0,0,0,0,0,0,337,0,0,0,0,337,0,0,0,0,0,0,0,0,337,0,0,0,0,337,0,0,0,0,0,0,0,0,0,0,0,0,0,292,292,0,0,0,0,0,0,0,0,0,0,0,0,0,0,0,0,0,0,0,0,0,0,0,0,0,0,0,0,0,0,0,0,0,0,0,0,0,0,0,0,0,0,0,0,0,0,0,0,0,0,0,0,
0,0,0,0,0,0,337,0,0,0,0,0,0,0,0,0,0,0,0,0,0,0,0,0,0,0,0,0,0,0,0,0,0,0,0,0,0,0,0,0,0,0,0,0,0,0,0,0,0,0,0,0,0,0,0,0,0,0,0,0,0,0,0,0,0,0,0,0,0,0,0,0,0,0,0,0,0,0,0,0,0,0,0,0,0,0,0,0,0,0,0,0,0,0,0,0,0,0,0,0,
0,0,0,0,0,0,0,292,0,0,337,0,0,0,0,0,0,0,0,0,0,0,0,0,0,0,337,0,0,0,0,0,0,0,0,0,0,0,0,0,0,0,0,0,0,0,291,0,0,0,0,0,0,0,0,0,0,0,0,0,0,0,0,0,0,0,0,0,0,0,0,0,0,0,0,0,0,0,0,0,0,0,0,0,0,0,0,0,0,0,0,0,0,0,0,0,0,0,0,0,
0,0,0,0,0,0,0,292,0,0,0,0,0,0,0,0,0,0,0,0,0,0,0,0,0,0,0,0,0,0,0,0,0,0,0,0,0,0,0,0,0,0,0,0,0,0,0,0,0,0,0,0,0,0,0,0,0,0,0,0,0,0,0,0,0,0,0,0,0,0,0,0,0,0,0,0,0,0,0,0,0,0,0,0,0,0,0,0,0,0,0,0,0,0,0,0,0,0,0,0,
0,0,0,0,0,0,337,0,0,0,356,0,0,0,0,0,0,0,0,0,0,0,0,0,337,0,0,0,0,0,0,0,0,0,0,0,0,0,0,0,0,0,0,0,0,0,0,0,0,0,0,0,0,0,0,0,0,0,0,0,0,0,0,0,0,0,0,0,0,0,0,0,0,0,0,0,0,0,0,0,0,0,0,0,0,0,0,0,0,0,0,0,0,0,0,0,0,0,0,0,
0,0,0,0,0,0,0,0,0,0,356,0,0,0,0,0,0,0,0,0,0,0,294,292,292,292,0,0,0,0,0,0,0,0,0,0,0,0,0,0,0,0,0,0,0,0,0,0,0,0,0,0,0,0,0,0,0,0,0,0,0,0,0,0,0,0,0,0,0,0,0,0,0,0,0,0,0,0,0,0,0,0,0,0,0,0,0,0,0,0,0,0,0,0,0,0,0,0,0,0,
0,0,0,0,0,0,0,0,0,0,0,0,0,0,0,0,0,0,0,0,0,337,0,292,292,292,0,0,0,0,0,0,0,0,0,0,0,0,0,0,0,0,0,0,0,0,0,0,0,0,0,0,0,0,0,0,0,0,0,0,0,0,0,0,0,0,0,0,0,0,0,0,0,0,0,0,0,0,0,0,0,0,0,0,0,0,0,0,0,0,0,0,0,0,0,0,0,0,0,0,
0,0,0,0,0,0,0,0,0,0,337,0,0,0,0,0,0,0,0,0,0,0,0,0,0,0,0,0,0,0,0,0,0,0,0,0,0,0,0,0,0,0,0,0,0,0,0,0,0,0,0,0,0,0,0,0,0,0,0,0,0,0,0,0,0,0,0,0,0,0,0,0,0,0,0,0,0,0,0,0,0,0,0,0,0,0,0,0,0,0,0,0,0,0,0,0,0,0,0,0,
0,0,0,0,0,0,0,0,0,0,0,0,0,0,0,0,0,0,0,0,0,0,0,0,0,0,0,0,0,0,0,0,0,0,0,0,0,0,0,0,0,0,0,0,0,0,0,0,0,0,0,0,0,0,0,0,0,0,0,0,0,0,0,0,0,0,0,0,0,0,0,0,0,0,0,0,0,0,0,0,0,0,0,0,0,0,0,0,0,0,0,0,0,0,0,0,0,0,0,0,
0,0,0,0,0,0,0,0,0,0,0,0,0,0,0,290,290,0,0,0,0,0,0,0,0,0,0,0,0,0,0,0,0,0,0,0,0,0,0,0,0,0,0,0,0,0,0,0,0,0,0,0,0,0,0,0,0,0,0,0,0,0,0,0,0,0,0,0,0,0,0,0,0,0,0,0,0,0,0,0,0,0,0,0,0,0,0,0,0,0,0,0,0,0,0,0,0,0,0,0,
0,0,0,0,0,0,0,0,0,0,0,0,0,0,0,0,0,0,0,0,0,0,0,0,0,0,0,0,0,0,0,0,0,0,0,0,0,0,0,0,0,0,0,0,0,0,0,0,0,0,0,0,0,0,0,0,0,0,0,0,0,0,0,0,0,0,0,0,0,0,0,0,0,0,0,0,0,0,0,0,0,0,0,0,0,0,0,0,0,0,0,0,0,0,0,0,0,0,0,0,
0,0,0,0,0,0,0,0,0,0,0,0,0,0,0,0,0,0,0,0,0,0,0,0,0,0,0,0,0,0,0,0,0,0,0,0,0,0,0,0,0,0,0,0,0,0,0,0,0,0,0,0,0,0,0,0,0,0,0,0,0,0,0,0,0,0,0,0,0,0,0,0,0,0,0,0,0,0,0,0,0,0,0,0,0,0,0,0,0,0,0,0,0,0,0,0,0,0,0,0

