[header]
width=60
height=60
tilewidth=64
tileheight=64

[tilesets]
tileset=images/tilemap.png,64,64,0,0
tileset=images/functional_tilemap.png,64,64,0,0

[layer]
type=mapdata
data=
0,0,0,0,0,0,0,0,0,0,0,0,0,0,0,0,0,0,0,0,0,0,0,0,0,0,0,0,0,0,0,0,0,0,0,0,0,0,0,0,0,0,0,0,0,0,0,0,0,0,0,0,0,0,0,0,0,0,0,0,
0,0,0,0,0,0,0,0,0,0,0,0,0,0,0,0,0,0,0,0,0,0,0,0,0,0,0,0,0,0,0,0,0,0,0,0,0,0,0,0,0,0,0,0,0,0,0,0,0,0,0,0,0,0,0,0,0,0,0,0,
0,0,0,0,0,0,0,0,0,0,0,0,0,0,0,0,0,0,0,0,0,0,0,0,0,0,0,0,0,0,0,0,0,0,0,0,0,0,0,0,0,0,0,0,0,0,0,0,0,0,0,0,0,0,0,0,0,0,0,0,
0,0,0,0,0,0,0,0,0,0,0,0,0,0,0,0,0,0,0,0,0,0,0,0,0,0,0,0,0,0,0,0,0,0,0,0,0,0,0,0,0,0,0,0,0,0,0,0,0,0,0,0,0,0,0,0,0,0,0,0,
0,0,55,51,51,51,51,51,51,51,51,51,67,51,51,51,51,51,51,51,51,51,51,51,51,51,51,51,51,51,51,51,67,51,51,51,51,51,51,51,51,67,51,51,51,51,51,51,51,51,51,51,51,51,51,51,51,56,0,0,
0,0,52,2,2,2,2,2,2,2,2,2,52,2,39,39,2,2,2,2,2,36,49,37,37,2,49,2,2,2,2,2,71,2,2,2,2,2,2,2,2,71,2,2,2,2,2,2,2,2,2,2,2,2,2,37,50,52,0,0,
0,0,52,2,2,2,2,2,2,2,2,2,52,38,2,37,2,2,2,2,2,2,36,38,38,36,2,2,2,152,2,2,2,2,2,2,2,2,151,2,2,2,2,2,2,2,2,2,2,2,2,2,2,2,2,2,2,52,0,0,
0,0,52,2,2,2,2,2,2,2,2,2,52,50,38,2,2,2,150,2,2,2,2,2,2,150,2,2,2,2,2,2,2,2,2,2,2,2,2,2,2,162,2,2,2,2,2,2,2,2,165,2,2,2,2,2,2,52,0,0,
0,0,52,37,37,37,2,2,2,2,2,2,52,2,50,2,2,2,2,2,2,2,2,2,2,2,2,2,2,2,163,2,72,2,2,2,2,2,2,2,2,72,2,2,2,2,2,2,2,2,2,2,2,2,2,2,2,52,0,0,
0,0,65,51,51,51,67,81,2,2,82,51,68,51,51,81,2,2,82,51,67,51,51,51,51,51,81,2,2,82,51,67,68,51,51,51,51,51,67,51,51,68,51,51,51,67,51,51,51,51,51,51,51,56,36,2,2,52,0,0,
0,0,0,0,0,0,52,2,2,2,2,2,2,2,2,2,161,2,2,2,52,2,2,39,39,2,2,2,2,2,2,52,2,36,36,36,38,39,52,2,38,50,2,37,50,52,49,2,2,36,36,2,2,52,36,2,2,52,0,0,
0,0,0,0,0,0,52,2,2,2,2,2,2,2,2,2,2,2,2,2,52,2,2,38,2,2,2,2,2,2,2,52,38,36,36,50,39,50,52,38,49,36,38,38,36,52,2,2,36,38,37,2,2,52,36,50,2,52,0,0,
0,0,0,0,0,0,52,2,2,2,2,2,2,2,2,2,2,2,2,2,52,2,37,50,2,2,37,2,2,2,2,71,2,2,2,2,2,2,65,51,51,51,51,51,51,70,2,2,2,37,37,2,2,52,36,50,36,52,0,0,
0,0,0,0,0,0,69,51,51,51,81,2,2,82,51,67,51,51,51,51,70,2,2,36,2,2,37,2,2,2,2,2,2,2,2,2,2,2,2,2,2,50,2,37,39,52,39,2,2,50,2,2,2,69,51,51,51,70,0,0,
0,0,0,0,0,0,52,2,2,2,2,2,2,2,2,52,0,0,0,0,52,2,2,49,2,2,2,2,2,151,2,2,2,2,2,2,2,2,2,2,2,2,36,49,49,52,39,2,2,37,39,2,2,52,38,39,36,52,0,0,
0,0,0,0,0,0,52,2,1,1,1,1,1,1,2,52,0,0,0,0,52,36,2,2,2,39,2,2,2,2,2,72,2,2,2,2,2,2,2,2,2,2,2,36,36,52,37,2,2,2,2,2,2,52,36,36,38,52,0,0,
0,0,0,0,0,0,52,2,2,36,50,50,2,2,2,52,0,0,0,0,52,36,2,2,2,50,50,2,2,2,2,52,165,2,2,2,2,2,2,2,2,2,2,2,2,52,50,2,2,2,2,2,36,52,36,2,36,52,0,0,
0,0,0,0,0,0,69,51,51,51,51,51,51,51,51,70,0,0,0,0,65,51,51,51,51,51,67,51,51,51,51,83,51,81,2,2,82,51,56,2,2,2,2,2,2,65,51,51,81,2,2,82,51,66,38,50,36,52,0,0,
0,0,0,0,0,0,52,36,36,2,2,2,36,36,2,52,0,0,0,0,0,0,0,0,0,0,52,2,36,37,39,52,2,2,2,2,2,2,52,49,38,2,2,2,2,37,39,2,2,2,2,2,2,2,39,38,2,52,0,0,
0,0,0,0,0,0,52,36,36,2,2,2,2,36,36,52,0,0,0,0,0,0,0,0,0,0,52,49,38,50,38,52,2,2,2,2,2,2,52,38,36,2,2,2,2,2,38,2,2,2,2,2,2,36,38,2,2,52,0,0,
0,0,0,0,0,0,52,2,2,36,2,2,2,2,2,52,0,0,0,0,0,0,0,0,0,0,52,49,38,38,36,52,36,2,2,2,2,2,52,2,36,49,2,2,2,2,164,2,2,2,2,2,2,2,2,2,2,52,0,0,
0,0,0,0,0,0,52,2,2,2,2,2,2,2,2,52,0,0,0,0,0,0,0,0,0,0,52,49,2,2,36,52,36,39,39,39,37,50,52,38,36,49,2,2,2,2,2,2,2,2,2,2,2,2,2,2,2,52,0,0,
0,0,0,55,51,51,68,51,51,81,2,2,82,51,51,68,51,51,51,51,51,51,51,51,51,51,83,51,51,51,51,83,51,51,51,51,51,51,68,51,51,51,56,2,2,2,2,2,55,51,51,51,51,51,51,51,51,68,0,0,
0,0,0,52,36,2,2,2,2,2,2,2,2,2,2,2,2,2,2,2,2,2,2,2,36,36,52,36,36,2,2,52,0,0,0,0,0,0,0,0,0,0,52,2,2,1,2,2,52,2,2,36,2,2,2,2,2,2,0,0,
0,0,0,52,39,2,2,2,2,2,2,2,2,2,2,2,2,2,2,2,2,2,2,2,2,36,52,2,36,36,36,52,0,0,0,0,0,0,0,0,0,0,52,2,2,1,2,39,52,2,50,50,2,2,2,2,2,2,0,0,
0,0,0,52,39,2,2,2,2,2,2,2,2,2,2,2,2,2,2,2,2,2,2,1,2,2,52,2,2,2,36,52,0,0,0,0,0,0,0,0,0,0,52,2,2,167,2,36,52,36,38,36,2,2,2,55,56,2,0,0,
0,0,0,52,38,2,2,2,2,2,2,2,2,2,2,2,2,2,2,2,2,2,2,1,2,2,52,2,2,2,2,52,0,0,0,0,0,0,0,0,0,0,52,2,2,1,2,39,52,36,2,2,2,2,55,83,83,67,0,0,
0,0,0,52,38,2,2,2,2,55,51,51,51,51,51,51,51,51,51,51,56,2,2,1,2,2,71,2,2,2,2,52,0,0,0,0,0,0,0,0,0,0,52,2,161,1,2,36,52,2,2,2,2,2,65,83,83,68,0,0,
0,0,0,52,38,49,1,2,2,52,2,39,2,2,2,2,2,2,2,36,52,2,2,1,2,2,2,2,2,2,2,52,0,0,0,0,0,0,0,0,0,0,52,2,2,1,2,36,52,39,49,2,2,2,2,65,66,2,0,0,
0,0,0,52,49,36,1,2,2,52,49,36,2,2,2,2,2,2,2,2,52,2,2,1,2,2,2,2,2,2,2,52,0,0,0,0,0,0,0,0,0,0,52,38,2,1,2,36,52,2,37,37,2,2,2,2,2,2,0,0,
0,0,0,52,2,37,1,2,2,52,49,2,2,2,39,50,2,2,2,36,52,36,2,1,2,2,72,2,2,2,2,52,0,0,0,0,0,0,0,0,0,0,52,37,2,1,2,2,52,2,38,38,2,2,2,2,2,2,0,0,
0,0,0,52,2,38,1,2,2,52,2,2,2,2,49,36,36,2,2,2,52,36,2,1,2,2,52,2,2,2,2,52,0,0,0,0,0,0,0,0,0,0,52,39,2,2,2,2,65,51,51,51,51,51,51,51,51,67,0,0,
0,0,0,52,2,49,1,2,2,52,2,2,2,2,38,36,36,2,2,2,52,36,2,1,2,2,52,2,2,2,36,52,0,0,0,0,0,0,0,0,0,0,52,39,2,2,2,2,2,2,2,2,2,2,2,2,2,52,0,0,
0,0,0,52,2,39,1,2,2,52,2,2,2,36,2,50,50,38,36,2,52,2,2,1,2,2,52,36,36,36,36,52,0,0,0,0,0,0,0,0,0,0,52,36,36,2,2,2,2,2,2,2,2,2,2,2,2,52,0,0,
0,0,0,52,2,2,1,2,2,52,2,2,36,49,2,37,39,36,37,2,52,2,2,2,2,2,52,36,2,2,2,52,0,0,0,0,0,0,0,0,0,0,52,36,39,36,2,2,2,2,2,2,2,2,2,2,2,52,0,0,
0,0,0,52,2,2,1,2,2,52,2,2,2,36,38,38,2,36,36,2,69,81,2,2,2,82,68,51,51,51,51,68,51,67,51,51,51,51,51,51,51,51,68,51,51,51,51,81,2,2,82,51,51,51,51,51,51,70,0,0,
0,0,0,52,49,50,1,2,2,52,36,2,2,38,36,38,36,36,2,2,52,2,2,2,2,2,2,2,50,36,36,36,49,52,36,50,36,39,49,38,36,2,2,2,2,2,2,2,2,2,2,2,2,36,36,2,2,52,0,0,
0,0,0,52,36,2,1,2,2,52,36,2,2,2,38,36,38,2,2,2,52,2,2,2,2,2,2,2,36,50,36,37,39,52,38,49,38,38,39,36,165,2,2,2,2,2,2,2,2,2,2,2,2,2,2,2,2,52,0,0,
0,0,0,52,39,50,1,2,2,52,39,2,2,2,2,38,38,2,2,2,52,2,49,2,2,2,2,37,2,50,49,2,37,52,39,2,2,2,2,2,2,2,2,2,2,2,2,2,2,2,2,2,2,2,2,2,2,52,0,0,
0,0,0,52,37,37,1,2,2,65,81,2,2,82,67,51,51,51,51,51,70,36,36,2,2,2,2,36,36,36,37,38,36,52,2,2,161,2,2,2,2,2,2,2,38,50,50,2,2,2,2,2,2,2,2,2,37,52,0,0,
0,0,0,52,2,50,1,2,2,2,2,2,2,2,52,2,2,36,36,36,52,50,37,2,2,2,2,36,36,2,2,2,36,52,2,2,2,2,2,2,2,55,51,51,51,51,51,81,2,2,2,82,51,51,51,51,51,70,0,0,
0,0,0,52,39,39,1,2,2,2,2,2,2,2,52,2,36,36,2,36,52,2,39,2,2,2,2,36,36,49,36,49,36,52,2,2,2,2,2,49,49,52,36,2,2,2,2,2,2,2,2,2,2,2,2,2,36,52,0,0,
0,0,0,52,38,2,1,2,2,2,2,2,2,2,52,2,36,38,38,2,52,36,38,2,2,2,2,2,2,36,49,49,36,71,2,2,2,2,38,49,36,52,36,2,2,2,2,2,2,1,2,2,2,2,2,2,2,52,0,0,
0,0,0,52,38,36,1,2,2,2,2,2,2,2,52,36,36,50,38,36,52,50,36,2,2,2,2,2,2,2,2,2,2,2,2,2,2,38,49,36,36,52,2,2,2,2,2,2,2,1,2,2,2,2,2,2,2,52,0,0,
0,0,0,52,36,36,39,36,50,2,2,2,2,2,52,38,39,49,38,36,52,50,38,39,2,2,2,2,2,2,2,2,2,2,2,2,2,39,2,36,36,52,2,2,2,2,2,2,2,1,2,2,2,2,2,2,2,52,0,0,
0,0,0,52,2,2,50,39,2,50,2,2,2,2,52,36,36,36,36,2,52,39,36,37,38,2,2,2,2,2,2,2,2,2,2,2,2,2,37,38,36,52,2,2,2,55,56,2,2,1,2,2,55,56,2,2,2,52,0,0,
0,0,0,52,38,36,50,2,39,50,2,2,2,2,52,38,49,49,36,37,52,38,36,49,38,36,39,2,2,2,2,2,2,72,2,2,2,49,49,39,39,69,51,51,67,83,83,56,2,1,2,55,83,83,67,51,51,70,0,0,
0,0,0,52,2,50,2,39,36,2,2,2,2,2,52,2,36,50,37,2,52,2,37,37,39,38,36,36,2,2,2,2,36,52,2,2,2,49,36,38,38,69,51,51,68,83,83,66,2,1,2,65,83,83,68,51,51,70,0,0,
0,0,0,65,51,51,51,51,51,56,2,2,2,2,69,51,51,51,51,51,83,51,51,51,51,51,51,51,51,51,51,51,51,70,2,2,2,2,36,36,36,52,2,2,2,65,66,2,2,1,2,2,65,66,2,2,2,52,0,0,
0,0,0,0,0,0,0,0,0,52,2,2,2,2,52,36,38,36,38,36,52,0,0,0,0,0,0,0,0,0,0,0,0,52,2,2,2,2,36,36,36,52,2,2,2,2,2,2,2,1,2,2,2,2,2,2,2,52,0,0,
0,0,0,0,0,0,0,0,0,52,2,2,2,2,52,38,36,36,2,36,52,0,0,0,0,0,0,0,0,0,0,0,0,52,2,2,2,2,36,38,36,52,2,2,2,2,2,2,2,1,2,2,2,2,2,2,2,52,0,0,
0,0,0,0,0,0,0,0,0,52,2,2,2,2,52,2,36,38,49,49,52,0,0,0,0,0,0,0,0,0,0,0,0,52,2,2,2,2,2,36,36,52,36,36,2,2,2,2,2,1,2,36,2,2,2,2,2,52,0,0,
0,0,0,0,0,0,0,0,0,52,2,2,2,2,52,36,36,50,37,38,52,0,0,0,0,0,0,0,0,0,0,0,0,52,2,2,2,2,2,2,36,52,36,36,2,2,2,2,2,2,2,2,2,2,2,2,36,52,0,0,
0,0,0,0,0,0,0,0,0,52,2,2,2,2,65,51,51,51,51,51,70,0,0,0,0,0,0,0,0,0,0,0,0,52,2,2,2,2,2,2,2,65,51,51,51,51,51,81,2,2,2,82,51,51,51,51,51,70,0,0,
0,0,0,0,0,0,0,0,0,52,2,2,2,2,2,2,37,37,39,38,52,0,0,0,0,0,0,0,0,0,0,0,0,52,2,2,2,2,2,2,2,2,2,2,2,2,2,2,2,2,2,2,2,2,36,36,36,52,0,0,
0,0,0,0,0,0,0,0,0,52,2,2,2,2,2,2,38,38,38,2,52,0,0,0,0,0,0,0,0,0,0,0,0,52,36,2,2,2,2,2,2,2,2,2,2,2,2,2,2,2,2,2,2,2,2,2,2,52,0,0,
0,0,0,0,0,0,0,0,0,52,2,2,2,2,2,2,50,50,39,2,52,0,0,0,0,0,0,0,0,0,0,0,0,52,36,36,36,2,2,2,2,2,2,2,2,2,2,2,2,2,2,2,2,2,2,2,2,52,0,0,
0,0,0,0,0,0,0,0,0,52,2,2,2,2,2,2,2,2,37,37,52,0,0,0,0,0,0,0,0,0,0,0,0,52,36,36,36,36,2,2,2,2,2,2,2,2,2,2,2,2,2,2,2,2,2,2,2,52,0,0,
0,0,0,0,0,0,0,0,0,52,2,2,2,2,2,2,2,2,2,2,52,0,0,0,0,0,0,0,0,0,0,0,0,65,51,51,51,51,51,51,51,51,51,51,51,51,51,51,51,51,51,51,51,51,51,51,51,18,0,0,
0,0,0,0,0,0,0,0,0,0,0,0,0,0,0,0,0,0,0,0,0,0,0,0,0,0,0,0,0,0,0,0,0,0,0,0,0,0,0,0,0,0,0,0,0,0,0,0,0,0,0,0,0,0,0,0,0,0,0,0

[layer]
type=functional
data=
305,306,307,308,309,310,311,312,313,314,315,316,317,318,319,320,0,0,0,0,0,0,0,0,0,0,0,0,0,0,0,0,0,0,0,0,0,0,0,0,0,0,0,0,0,0,0,0,0,0,0,0,0,0,0,0,0,0,0,0,
322,323,322,323,322,324,322,323,329,330,331,332,333,334,335,336,0,0,0,0,0,0,0,0,0,0,0,0,0,0,0,0,0,0,0,0,0,0,0,0,0,0,0,0,0,0,0,0,0,0,0,0,0,0,0,0,0,0,0,0,
0,0,0,0,0,0,0,0,0,0,0,0,0,0,0,0,0,0,0,0,0,0,0,0,0,0,0,0,0,0,0,0,0,0,0,0,0,0,0,0,0,0,0,0,0,0,0,0,0,0,0,0,0,0,0,0,0,0,0,0,
0,0,0,0,0,0,0,0,0,0,0,0,0,0,0,0,0,0,0,0,0,0,0,0,0,0,0,0,0,0,0,0,0,0,0,0,0,0,0,0,0,0,0,0,0,0,0,0,0,0,0,0,0,0,0,0,0,0,0,0,
0,0,0,0,0,0,0,0,0,0,0,0,0,0,0,0,0,0,0,0,0,0,0,0,0,0,0,0,0,0,0,0,0,0,0,0,0,0,0,0,0,0,0,0,0,0,0,0,0,0,0,0,0,0,0,0,0,0,0,0,
0,0,0,337,0,0,337,0,337,0,0,0,0,0,0,0,0,0,337,0,0,0,0,0,0,0,0,0,0,0,337,0,0,337,0,337,0,337,0,337,0,0,337,0,337,0,0,337,0,0,0,0,337,0,0,0,0,0,0,0,
0,0,0,0,289,0,0,0,0,0,0,0,0,0,0,0,0,0,0,0,0,0,0,0,0,0,0,0,0,0,0,0,0,0,0,0,0,0,0,0,0,0,258,0,0,0,337,0,0,0,337,274,0,0,337,0,0,0,0,0,
0,0,0,0,0,337,0,337,0,337,0,0,0,0,0,0,337,0,0,0,337,0,337,0,337,0,273,0,337,0,0,0,337,0,337,0,337,0,337,0,337,0,258,0,337,0,0,0,337,0,0,0,337,0,0,0,337,0,0,0,
0,0,0,0,0,0,0,0,0,0,0,0,0,0,0,0,257,257,0,0,0,0,0,0,0,0,0,0,0,0,0,0,0,0,0,0,0,0,0,0,0,0,0,0,0,0,0,0,0,0,0,0,0,0,0,354,0,0,0,0,
0,0,0,0,0,0,0,0,337,0,0,0,0,0,0,0,0,0,337,0,0,0,0,0,0,0,337,0,0,0,0,0,0,0,0,0,0,0,0,0,0,0,0,0,0,0,0,0,0,0,0,0,0,0,0,291,0,0,0,0,
0,0,0,0,0,0,0,0,0,0,0,0,0,0,353,0,0,0,0,0,0,0,0,0,0,0,0,259,259,0,0,0,0,337,0,337,0,0,0,0,0,0,0,0,0,0,0,0,0,0,0,0,0,0,0,0,0,0,0,0,
0,0,0,0,0,0,0,0,337,0,337,0,337,0,0,353,337,0,0,0,0,0,0,0,337,0,0,0,0,337,0,0,0,0,0,0,0,0,337,0,0,0,0,0,0,337,0,0,0,0,0,0,0,0,0,0,0,0,0,0,
0,0,0,0,0,0,0,0,0,0,0,0,0,0,337,0,353,0,0,0,0,337,0,0,0,0,0,337,0,0,0,0,0,0,337,0,337,0,0,0,0,337,0,0,0,0,0,0,0,0,0,0,0,0,0,0,0,0,0,0,
0,0,0,0,0,0,0,0,0,0,0,0,337,0,0,0,0,0,0,0,0,0,0,0,337,0,0,0,0,337,0,0,0,0,0,0,0,0,0,0,0,0,0,0,0,0,0,337,0,0,0,291,337,0,0,0,0,0,0,0,
0,0,0,0,0,0,0,0,0,0,0,0,0,0,0,0,0,0,0,0,0,0,0,0,0,0,337,0,0,0,0,0,0,337,0,337,0,337,0,0,0,0,0,0,337,0,0,0,0,0,0,0,0,0,0,0,0,0,0,0,
0,0,0,0,0,0,0,0,337,0,0,337,0,337,0,0,0,0,0,0,0,337,0,291,337,0,0,0,0,337,0,0,0,0,275,0,0,0,0,337,0,0,0,0,0,0,0,0,337,0,337,0,0,0,0,0,0,0,0,0,
0,0,0,0,0,0,0,0,0,0,0,0,0,0,0,0,0,0,0,0,0,0,0,0,0,0,0,0,0,0,0,0,0,0,0,0,0,337,0,0,0,337,260,0,0,0,0,0,0,0,0,0,0,0,0,0,0,0,0,0,
0,0,0,0,0,0,0,0,0,0,0,0,0,0,0,0,0,0,0,0,0,0,0,0,0,0,337,0,0,0,0,0,0,0,0,337,0,0,0,0,0,260,0,0,0,0,0,0,0,0,0,0,0,0,0,0,0,0,0,0,
0,0,0,0,0,0,0,0,0,0,0,0,0,0,0,0,0,0,0,0,0,0,0,0,0,0,0,0,337,0,0,0,0,0,0,0,0,0,337,0,0,0,337,0,0,0,0,0,0,337,0,0,0,0,0,0,0,0,0,0,
0,0,0,0,0,0,0,0,0,0,291,0,0,0,0,0,0,0,0,0,0,0,0,0,0,0,0,0,0,0,0,0,0,0,337,0,0,0,0,0,0,0,0,0,0,0,0,0,0,0,0,0,0,0,0,0,0,0,0,0,
0,0,0,0,0,0,0,0,337,0,0,0,337,0,0,0,0,0,0,0,0,0,0,0,0,0,0,0,0,337,0,0,0,0,0,0,0,0,0,337,0,0,0,0,0,337,0,337,0,0,337,0,337,0,337,337,0,0,0,0,
0,0,0,0,0,0,0,0,0,0,0,0,0,0,0,0,0,0,0,0,0,0,0,0,0,0,0,0,0,0,0,0,337,0,0,337,0,0,337,0,0,0,0,0,0,0,0,0,0,0,0,0,0,0,0,0,0,0,0,0,
0,0,0,0,0,0,0,0,0,0,0,0,0,0,0,0,0,0,0,0,0,0,0,0,0,0,0,0,0,0,0,0,0,0,0,0,0,0,0,0,0,0,0,337,0,276,0,0,0,0,0,0,0,0,0,0,0,0,0,0,
0,0,0,0,0,0,0,0,0,337,0,0,0,337,0,0,0,337,0,0,0,0,337,0,0,0,0,0,0,0,0,0,0,0,0,0,0,0,0,0,0,0,0,0,0,0,0,0,0,0,337,0,0,337,0,0,337,0,0,0,
0,0,0,0,0,0,0,0,0,0,0,337,0,0,0,337,0,0,0,0,0,0,0,0,0,0,0,0,0,337,0,0,0,0,0,0,0,0,0,0,0,0,0,0,337,0,0,0,0,0,0,0,0,0,0,0,0,0,0,0,
0,0,0,0,0,0,0,337,0,337,0,0,0,337,0,0,0,0,0,337,0,337,0,0,0,0,0,0,0,0,0,0,0,0,0,0,0,0,0,0,0,0,0,0,0,0,0,337,0,0,0,0,0,0,0,0,0,0,0,0,
0,0,0,0,0,0,0,0,0,0,0,337,0,0,0,0,0,0,0,0,0,0,0,337,0,0,0,0,337,0,0,0,0,0,0,0,0,0,0,0,0,0,0,0,0,0,0,0,0,0,0,0,0,0,0,0,0,0,0,0,
0,0,0,0,0,337,0,0,264,0,0,0,0,337,0,0,337,0,0,0,337,0,0,0,0,337,0,0,0,0,337,0,0,0,0,0,0,0,0,0,0,0,0,337,0,337,0,0,337,0,0,0,0,0,0,0,0,0,0,0,
0,0,0,0,0,0,264,264,0,0,0,0,0,0,0,0,0,0,0,0,0,0,0,337,0,0,0,0,337,0,0,0,0,0,0,0,0,0,0,0,0,0,0,0,355,355,355,0,0,0,0,0,0,0,0,0,0,0,0,0,
0,0,0,0,0,0,0,337,0,0,0,337,0,0,337,0,0,337,0,0,0,0,0,0,0,337,0,0,0,0,337,0,0,0,0,0,0,0,0,0,0,0,0,0,337,0,0,337,0,0,0,0,0,0,0,0,0,0,0,0,
0,0,0,0,0,0,0,0,0,0,0,0,0,0,0,0,0,0,0,0,337,0,0,337,0,0,0,0,337,0,0,0,0,0,0,0,0,0,0,0,0,0,0,0,0,0,0,0,0,337,0,0,0,0,0,0,0,0,0,0,
0,0,0,0,0,337,0,0,337,0,0,0,0,0,0,0,0,0,0,0,0,0,0,0,0,337,0,0,0,0,337,0,0,0,0,0,0,0,0,0,0,0,0,0,0,0,337,0,0,0,0,337,0,0,337,0,337,0,0,0,
0,0,0,0,0,0,0,0,0,0,0,0,337,0,0,337,0,337,0,0,0,0,0,337,0,0,0,0,0,0,0,0,0,0,0,0,0,0,0,0,0,0,0,0,0,0,0,0,0,0,0,0,0,0,0,0,0,0,0,0,
0,0,0,0,0,0,0,337,0,0,0,0,0,0,0,0,0,0,0,0,337,0,0,0,0,337,0,0,0,337,0,0,0,0,0,0,0,0,0,0,0,0,0,337,0,0,0,0,0,337,0,0,337,0,337,0,0,0,0,0,
0,0,0,0,0,337,0,0,0,0,337,0,0,0,0,0,0,0,0,0,0,0,0,337,0,0,0,0,0,0,0,0,0,0,0,0,0,0,0,0,0,0,0,0,0,0,0,0,0,0,0,0,0,0,0,0,0,0,0,0,
0,0,0,0,0,0,0,0,337,0,0,0,0,0,337,0,337,0,0,0,0,0,0,0,0,0,0,0,0,0,0,0,0,0,0,0,0,0,0,0,0,0,0,0,0,0,0,0,0,0,0,0,0,0,0,0,0,0,0,0,
0,0,0,0,0,0,0,0,0,0,0,0,0,0,0,0,0,0,0,0,0,0,0,279,337,0,0,0,0,0,0,0,0,0,0,0,0,0,0,0,0,337,0,0,0,0,0,0,337,0,0,337,0,0,0,0,0,0,0,0,
0,0,0,0,0,0,0,337,0,337,0,0,337,0,0,0,337,0,337,0,337,0,0,0,0,0,0,337,0,0,0,0,0,0,0,337,0,0,0,0,0,0,0,0,337,0,0,0,0,0,0,0,0,0,337,0,0,0,0,0,
0,0,0,0,0,0,0,0,0,0,0,0,0,0,0,0,0,0,0,0,337,0,0,0,337,0,0,0,0,0,0,0,0,0,0,0,0,0,337,0,261,0,337,0,0,0,337,0,0,0,0,337,0,0,0,0,0,0,0,0,
0,0,0,0,0,337,0,0,337,0,337,0,0,0,0,0,0,0,0,0,0,0,0,0,0,0,0,0,337,0,0,0,0,0,0,0,0,0,0,0,261,0,0,0,0,0,0,0,0,337,0,0,0,0,0,337,0,0,0,0,
0,0,0,0,0,0,0,280,0,0,0,0,0,337,0,0,0,0,0,0,0,0,0,0,337,0,0,0,0,0,0,0,0,0,0,0,0,337,0,0,0,0,0,337,0,0,0,0,0,0,0,0,0,337,0,0,0,0,0,0,
0,0,0,0,0,0,0,337,0,337,0,0,0,0,0,0,0,0,0,0,0,0,0,0,0,0,0,0,0,0,337,0,0,0,0,337,0,0,0,337,0,0,0,0,0,0,0,0,0,0,0,0,0,0,0,0,0,0,0,0,
0,0,0,0,0,0,0,0,0,0,0,337,0,337,0,0,0,0,0,0,0,0,0,337,0,337,263,0,0,0,0,0,0,0,277,0,0,0,0,0,0,0,0,0,0,337,0,0,337,0,0,337,0,0,337,0,0,0,0,0,
0,0,0,0,0,337,0,0,0,337,0,0,0,0,0,0,0,0,0,0,0,0,0,0,263,263,0,337,0,0,0,0,0,0,0,0,0,0,0,0,0,0,0,0,0,0,0,0,0,0,0,0,0,0,0,0,0,0,0,0,
0,0,0,0,0,0,0,0,0,0,0,0,0,337,0,0,0,0,0,0,0,0,0,0,0,0,0,0,0,0,0,0,0,337,0,0,0,0,337,0,0,0,0,337,0,0,0,337,0,0,337,0,0,337,0,337,0,0,0,0,
0,0,0,0,0,0,0,337,0,0,0,0,0,0,0,0,0,0,0,0,0,0,0,0,337,0,0,0,337,0,337,0,0,0,0,337,0,0,0,0,0,0,0,0,0,0,0,0,0,0,0,0,0,0,0,0,0,0,0,0,
0,0,0,0,0,0,0,0,0,337,0,337,0,337,0,0,0,0,0,0,0,0,0,0,0,0,337,0,0,0,0,0,0,0,0,0,0,0,0,0,0,0,0,0,0,0,0,0,0,337,0,0,0,0,0,0,0,0,0,0,
0,0,0,0,0,0,0,0,0,0,0,0,0,0,0,0,0,0,0,0,0,0,0,0,0,0,0,0,0,0,0,0,0,0,0,337,0,0,0,0,0,0,0,0,0,0,0,0,262,262,262,0,0,0,0,0,0,0,0,0,
0,0,0,0,0,0,0,0,0,0,337,0,0,337,0,0,0,0,0,0,0,337,0,337,0,0,337,0,0,337,0,337,0,0,0,0,0,0,337,0,0,0,0,0,0,0,0,0,0,0,0,0,0,0,0,0,0,0,0,0,
0,0,0,0,0,0,0,0,0,0,0,0,0,0,0,0,0,0,0,0,0,0,0,0,0,0,0,0,0,0,0,0,0,337,0,337,0,0,0,0,0,0,0,337,0,0,0,337,0,0,337,0,0,337,0,337,0,0,0,0,
0,0,0,0,0,0,0,0,0,0,0,337,0,337,0,0,0,0,0,0,0,0,0,0,0,0,0,0,0,0,0,0,0,337,0,0,0,0,0,0,0,0,0,0,0,0,0,0,0,0,0,0,0,0,291,0,0,0,0,0,
0,0,0,0,0,0,0,0,0,0,0,0,0,0,0,0,0,0,0,0,0,0,0,0,0,0,0,0,0,0,0,0,0,0,0,0,0,0,0,337,0,0,0,0,0,337,0,0,337,0,0,0,337,0,337,0,0,0,0,0,
0,0,0,0,0,0,0,0,0,0,337,0,337,0,0,0,0,0,0,0,0,0,0,0,0,0,0,0,0,0,0,0,0,0,0,337,0,0,0,0,0,0,0,0,0,0,0,0,0,0,0,0,0,0,0,0,0,0,0,0,
0,0,0,0,0,0,0,0,0,0,290,290,290,290,0,0,0,0,0,0,0,0,0,0,0,0,0,0,0,0,0,0,0,337,0,0,0,337,0,0,0,0,0,0,0,0,0,0,0,0,0,0,0,0,0,0,0,0,0,0,
0,0,0,0,0,0,0,0,0,0,0,0,0,0,0,0,0,0,0,0,0,0,0,0,0,0,0,0,0,0,0,0,0,0,0,0,0,0,0,0,337,0,0,0,0,0,0,0,0,337,0,0,337,0,0,0,0,0,0,0,
0,0,0,0,0,0,0,0,0,0,0,0,0,0,0,0,0,0,0,0,0,0,0,0,0,0,0,0,0,0,0,0,0,337,0,0,0,0,0,0,0,0,0,0,337,0,0,278,0,0,0,0,0,0,0,0,0,0,0,0,
0,0,0,0,0,0,0,0,0,0,0,0,0,0,0,0,0,0,0,0,0,0,0,0,0,0,0,0,0,0,0,0,0,0,0,337,0,0,337,0,0,337,0,0,0,0,337,0,337,0,0,0,337,0,0,0,0,0,0,0,
0,0,0,0,0,0,0,0,0,0,0,0,0,0,0,0,0,0,0,0,0,0,0,0,0,0,0,0,0,0,0,0,0,0,0,0,0,0,0,0,0,0,0,0,0,0,0,0,0,0,0,0,0,0,0,0,0,0,0,0,
0,0,0,0,0,0,0,0,0,0,0,0,0,0,0,0,0,0,0,0,0,0,0,0,0,0,0,0,0,0,0,0,0,337,0,0,337,0,0,337,0,337,0,0,337,0,0,337,0,0,337,0,0,337,0,337,0,0,0,0,
0,0,0,0,0,0,0,0,0,0,0,0,0,0,0,0,0,0,0,0,0,0,0,0,0,0,0,0,0,0,0,0,0,0,0,0,0,0,0,0,0,0,0,0,0,0,0,0,0,0,0,0,0,0,0,0,0,0,0,0

